<svg xmlns="http://www.w3.org/2000/svg" viewBox="0 0 28 40">
  <defs>
    <style>
      .cls-1 {
        fill: #ffd7a3;
      }

      .cls-2 {
        fill: #fdc88e;
      }

      .cls-3 {
        fill: #734a3e;
      }

      .cls-4 {
        fill: #623f33;
      }

      .cls-5 {
        fill: #ffe1b2;
      }

      .cls-6 {
        fill: #e4b07b;
      }

      .cls-7 {
        fill: #00bea4;
      }

      .cls-8 {
        fill: #00ab9a;
      }
    </style>
  </defs>
  <g id="boy" transform="translate(-75.184)">
    <path id="Path_128" data-name="Path 128" class="cls-1" d="M103.167,37.674l-.9-6.984a2.784,2.784,0,0,0-1.931-2.275l-3.486-1.122a1.468,1.468,0,0,0-1.373.248l-1.027-.331a1.384,1.384,0,0,1-.977-1.309V23.678l3.077-1.238a4.138,4.138,0,0,0,2.637-3.819v-.69a2.107,2.107,0,0,0,2.143-2.069,2.019,2.019,0,0,0-.519-1.349c.606-2.131,2.31-8.871.519-11.755L102.04,0s-7.5.172-11.427,1.379L92.041,0S82,0,79.9,3.448h0s-3.571-.029-3.571,4.138a44.979,44.979,0,0,0,1.259,6.9,2.022,2.022,0,0,0-.545,1.378,2.107,2.107,0,0,0,2.143,2.069v.69a4.139,4.139,0,0,0,2.637,3.82L84.9,23.678V25.9a1.384,1.384,0,0,1-.977,1.309l-1.027.331a1.468,1.468,0,0,0-1.373-.248l-3.486,1.122A2.783,2.783,0,0,0,76.1,30.691l-.9,6.984A2.1,2.1,0,0,0,77.327,40h23.714A2.1,2.1,0,0,0,103.167,37.674Z"/>
    <g id="Group_29" data-name="Group 29" transform="translate(84.183 23.678)">
      <path id="Path_129" data-name="Path 129" class="cls-2" d="M185.269,274.667H176.7v2.224a1.36,1.36,0,0,1-.716,1.177A9.86,9.86,0,0,0,185.269,274.667Z" transform="translate(-175.983 -274.667)"/>
    </g>
    <g id="Group_30" data-name="Group 30" transform="translate(76.328)">
      <path id="Path_130" data-name="Path 130" class="cls-3" d="M89.428,15.172A53.451,53.451,0,0,1,88,7.586c0-4.167,3.571-4.138,3.571-4.138h0C93.669,0,103.713,0,103.713,0l-1.428,1.379C106.212.172,113.712,0,113.712,0L113,2.759c2.143,3.448-.714,12.414-.714,12.414Z" transform="translate(-88)"/>
    </g>
    <g id="Group_31" data-name="Group 31" transform="translate(76.328)">
      <path id="Path_131" data-name="Path 131" class="cls-4" d="M103.713,0S93.669,0,91.572,3.448h0S88,3.42,88,7.586a53.451,53.451,0,0,0,1.428,7.586S104.278,8.764,113.712,0c0,0-7.5.172-11.427,1.379Z" transform="translate(-88)"/>
    </g>
    <path id="Path_132" data-name="Path 132" class="cls-5" d="M118.141,108.828v-1.379A3.511,3.511,0,0,0,114.569,104H101.714a3.511,3.511,0,0,0-3.571,3.448v1.379a2.07,2.07,0,1,0,0,4.138v.69a4.139,4.139,0,0,0,2.637,3.82l4.615,1.857a7.363,7.363,0,0,0,2.747.531h0a7.364,7.364,0,0,0,2.747-.531l4.615-1.857a4.139,4.139,0,0,0,2.637-3.82v-.69a2.07,2.07,0,1,0,0-4.138Z" transform="translate(-18.958 -95.035)"/>
    <g id="Group_32" data-name="Group 32" transform="translate(83.47 14.483)">
      <path id="Path_133" data-name="Path 133" class="cls-4" d="M168.714,170.069h0a.7.7,0,0,1-.714-.69v-.69a.7.7,0,0,1,.714-.69h0a.7.7,0,0,1,.714.69v.69A.7.7,0,0,1,168.714,170.069Z" transform="translate(-168 -168)"/>
    </g>
    <g id="Group_33" data-name="Group 33" transform="translate(93.469 14.483)">
      <path id="Path_134" data-name="Path 134" class="cls-4" d="M280.714,170.069h0a.7.7,0,0,1-.714-.69v-.69a.7.7,0,0,1,.714-.69h0a.7.7,0,0,1,.714.69v.69A.7.7,0,0,1,280.714,170.069Z" transform="translate(-280 -168)"/>
    </g>
    <g id="Group_35" data-name="Group 35" transform="translate(85.613 19.31)">
      <g id="Group_34" data-name="Group 34" transform="translate(0)">
        <path id="Path_135" data-name="Path 135" class="cls-6" d="M195.57,226.086a6.111,6.111,0,0,1-3.259-.828.675.675,0,0,1-.189-.958.73.73,0,0,1,.992-.182,5.412,5.412,0,0,0,4.91,0,.729.729,0,0,1,.992.182.675.675,0,0,1-.189.958A6.111,6.111,0,0,1,195.57,226.086Z" transform="translate(-191.999 -223.998)"/>
      </g>
    </g>
    <g id="Group_36" data-name="Group 36" transform="translate(75.184 27.221)">
      <path id="Path_136" data-name="Path 136" class="cls-7" d="M103.167,326.222l-.9-6.984a2.784,2.784,0,0,0-1.931-2.275l-3.486-1.122a1.432,1.432,0,0,0-1.633.535,7.272,7.272,0,0,1-12.058,0,1.432,1.432,0,0,0-1.633-.535l-3.486,1.122a2.783,2.783,0,0,0-1.931,2.275l-.9,6.984a2.1,2.1,0,0,0,2.126,2.326h23.714A2.1,2.1,0,0,0,103.167,326.222Z" transform="translate(-75.184 -315.769)"/>
    </g>
    <g id="Group_37" data-name="Group 37" transform="translate(75.184 29.325)">
      <path id="Path_137" data-name="Path 137" class="cls-8" d="M76.7,340.168a2.7,2.7,0,0,0-.6,1.366l-.9,6.984a2.1,2.1,0,0,0,2.126,2.326h4v-4.489a2.7,2.7,0,0,0-.7-1.806Z" transform="translate(-75.184 -340.168)"/>
    </g>
    <g id="Group_38" data-name="Group 38" transform="translate(97.04 29.325)">
      <path id="Path_138" data-name="Path 138" class="cls-8" d="M324.627,340.168a2.7,2.7,0,0,1,.6,1.366l.9,6.984A2.1,2.1,0,0,1,324,350.843h-4v-4.489a2.7,2.7,0,0,1,.7-1.806Z" transform="translate(-320 -340.168)"/>
    </g>
    <path id="Path_139" data-name="Path 139" class="cls-1" d="M101.892,116.045a3.172,3.172,0,0,1-.892-2.209v-7.816c2.273-.165,9.44-.763,13.57-2.021H101.714a3.472,3.472,0,0,0-.714.076v-.006a3.482,3.482,0,0,0-2.857,3.379v1.379a2.07,2.07,0,1,0,0,4.138v.69a4.139,4.139,0,0,0,2.637,3.82l4.615,1.857c.226.091.456.169.69.237A29.516,29.516,0,0,1,101.892,116.045Z" transform="translate(-18.958 -95.035)"/>
  </g>
</svg>
