<?xml version="1.0" encoding="utf-8"?>
<!-- Generator: Adobe Illustrator 22.1.0, SVG Export Plug-In . SVG Version: 6.00 Build 0)  -->
<svg version="1.1" id="Layer_1" xmlns="http://www.w3.org/2000/svg" xmlns:xlink="http://www.w3.org/1999/xlink" x="0px" y="0px"
	 viewBox="0 0 6935.3169 1124.6824" style="enable-background:new 0 0 6935.3169 1124.6824;" xml:space="preserve">
<style type="text/css">
	.st0{fill:#035CAB;}
	.st1{fill:#FEF101;}
	.st2{fill:#FFFFFF;}
	.st3{fill:#FDFCFB;}
	.st4{fill:#96C3E0;}
	.st5{fill:#F26622;}
	.st6{fill:#F06724;}
	.st7{fill:#FDEB03;}
</style>
<path class="st0" d="M4124.6968,874.7c-35.543-100.3124-71.0854-200.625-106.6609-300.9257
	c-0.0383-0.1077-0.5764-0.0381-1.79-0.0912c-9.6497,94.6959-19.3054,189.4506-29.0876,285.4492
	c-62.1099-4.2267-123.0278-8.3724-185.4861-12.6228c6.3367-49.9708,13.4565-98.8888,20.0422-147.8705
	c6.5645-48.8287,13.5227-97.6044,20.2202-146.4155c6.7432-49.1437,13.3159-98.311,20.0776-147.4522
	c6.7051-48.7292,13.5525-97.4387,20.3882-146.5226c3.5564-0.3435,6.1243-0.8058,8.6926-0.8079
	c50.9937-0.0417,101.9875-0.043,152.9812-0.0178c9.2715,0.0046,9.3267,0.0573,12.2803,9.369
	c23.9487,75.4978,47.8721,151.0037,71.8267,226.4995c0.5767,1.8173,1.4272,3.5474,3.0107,7.4271
	c26.5542-82.2339,52.4897-162.5522,78.5664-243.3071c4.2061,0,7.5015,0,10.7969,0c48.9941-0.0001,97.9878-0.0003,146.9819,0.0002
	c1.6665,0,3.3379,0.0903,4.9985-0.0057c4.5791-0.2647,6.5249,1.9756,7.0283,6.4228c2.3979,21.1775,4.9502,42.3377,7.4731,63.5009
	c4.4932,37.6929,9.0439,75.379,13.4976,113.0766c4.3745,37.0354,8.6191,74.0862,12.9941,111.1215
	c3.438,29.0966,7.0195,58.1759,10.4761,87.2703c4.5166,38.0231,8.9541,76.0555,13.4609,114.0798
	c3.3315,28.106,6.7329,56.2037,10.062,84.31c0.3052,2.5792,0.3125,5.1935,0.5332,9.1267
	c-62.0522,4.7711-123.6284,8.3458-186.5093,12.881c-9.1963-96.0364-17.2139-191.1266-26.2969-287.6225
	c-1.6265,2.6536-2.8735,4.0724-3.4541,5.7252c-30.8921,87.9376-61.7095,175.9012-92.5923,263.842
	c-4.0044,11.4033-8.3159,22.6987-12.4854,34.0441C4126.0474,875.0228,4125.3721,874.8614,4124.6968,874.7z"/>
<path class="st0" d="M5380.9209,863.4277c-29.5669-81.7971-59.2666-163.9611-88.9658-246.1251
	c-0.5815,0.0861-1.1626,0.1721-1.7441,0.2582c0,76.9314,0,153.8627,0,232.1662c-62.6875,5.0548-124.4692,10.1351-187.0464,14.6087
	c0-202.5419,0-403.9532,0-606.1572c3.332-0.282,6.1982-0.7348,9.0649-0.7363c73.9795-0.0387,147.9609-0.3933,221.937,0.1212
	c37.6855,0.2622,75.1763,3.3762,111.21,15.9049c37.228,12.9441,68.7329,33.5847,90.0464,67.6353
	c13.5117,21.5873,20.2588,45.4106,22.6289,70.6529c2.3872,25.4226,1.3438,50.623-5.5884,75.2428
	c-12.0435,42.7697-37.5454,75.2145-76.293,97.1363c-1.9917,1.1266-3.936,2.3357-6.6895,3.975
	c36.0586,83.1981,72.0103,166.1509,107.9502,249.0757C5569.6357,841.1375,5401.0679,863.6489,5380.9209,863.4277z
	 M5290.3438,561.7621c9.0571-1.0391,17.2661-1.5311,25.3008-2.9852c26.6211-4.8179,48.1323-20.7997,53.9429-51.4581
	c2.1929-11.5729,2.1353-23.1517-0.2168-34.7067c-4.8218-23.6863-19.1714-39.071-41.7515-46.6234
	c-11.8716-3.9707-24.2295-5.9729-37.2754-4.8882C5290.3438,467.8119,5290.3438,513.6353,5290.3438,561.7621z"/>
<path class="st0" d="M5805.5117,842.3202c-63.7651,6.0776-125.9146,12.0013-187.8862,17.908
	c-2.3174-8.0045-3.248-572.5048-1.2437-592.2251c7.3989-2.8926,175.8208-17.273,188.6133-15.8575c0,78.8395,0,157.8339,0,236.8283
	c0.6831,0.1013,1.3667,0.2026,2.0498,0.304c31.3945-80.0852,62.7896-160.1704,94.5112-241.0908
	c66.1216,6.5664,131.833,13.092,199.1304,19.7752c-1.9233,4.7714-3.1426,8.075-4.5659,11.2882
	c-35.0596,79.1636-70.0107,158.3759-105.4033,237.3905c-3.8804,8.6633-3.8271,15.5724-0.0278,24.3209
	c42.3071,97.4249,84.1484,195.0521,126.1104,292.6268c0.9126,2.1218,1.7642,4.2698,3.0059,7.2825
	c-2.3857,0.7564-4.3623,1.7871-6.415,1.9724c-23.876,2.1552-47.7637,4.1699-71.6465,6.2471
	c-33.1704,2.885-66.3379,5.803-99.5088,8.6801c-7.9604,0.6905-16.0156,0.7673-23.8682,2.0785
	c-5.7017,0.952-7.624-1.3356-9.3208-6.1356c-7.5464-21.3451-15.457-42.5607-23.1387-63.8582
	c-25.7461-71.3791-51.4497-142.7737-77.188-214.1556c-0.4067-1.1277-1.0542-2.1684-3.208-2.9429
	C5805.5117,662.0829,5805.5117,751.4089,5805.5117,842.3202z"/>
<path class="st0" d="M5071.1831,846.9476c-6.2383,0.7285-11.1372,1.468-16.0635,1.8495
	c-41.8145,3.2383-83.6328,6.4152-125.4512,9.6024c-18.5762,1.4158-37.1665,2.665-55.7222,4.3075
	c-5.6953,0.5042-7.3677-2.2013-8.7271-7.0663c-6.9854-24.9985-14.3013-49.9047-21.5142-74.8396
	c-2.0234-6.9942-4.0889-13.9758-6.2212-21.257c-51.6743,0-102.833,0-154.5635,0c-5.1968,17.1758-10.3232,33.9883-15.3657,50.8262
	c-4.3926,14.6652-8.6089,29.3835-13.0596,44.0308c-2.7036,8.8956-2.8125,8.5566-11.8374,7.8113
	c-28.5313-2.356-57.0811-4.4829-85.626-6.6703c-30.1968-2.314-60.3975-4.5707-90.5913-6.92
	c-4.2275-0.3289-8.4253-1.0428-13.6274-1.7046c1.0894-4.0685,1.75-7.2142,2.769-10.239
	c19.5469-58.0241,39.1118-116.0421,58.7202-174.0457c36.6602-108.4442,73.3462-216.8796,110.0303-325.3156
	c8.1045-23.955,16.2212-47.9056,24.3896-71.8389c2.7197-7.9669,2.8008-8.0469,11.2188-8.0506
	c68.9736-0.0303,137.9468-0.0276,206.9204-0.0053c9.1982,0.003,9.2764,0.0538,12.3594,9.3374
	c23.3818,70.4199,46.7217,140.8536,70.0908,211.2776c25.8896,78.0179,51.7935,156.0308,77.6953,234.0443
	c13.8374,41.6768,27.6953,83.3468,41.5083,125.0317C5069.4443,839.9172,5070.0732,842.8207,5071.1831,846.9476z M4716.0854,603.0963
	c29.562,0,57.2935,0,85.813,0c-13.5405-55.4651-26.8662-110.051-40.1919-164.6369c-0.6709,0.05-1.3413,0.1001-2.0122,0.1502
	C4745.25,493.0912,4730.8057,547.5729,4716.0854,603.0963z"/>
<path class="st0" d="M2180.3921,846.8941c-5.9255,0.7368-10.4846,1.4928-15.0747,1.8454
	c-51.4417,3.9525-102.8877,7.8494-154.3337,11.7443c-8.9597,0.6783-17.9316,1.2003-26.886,1.9395
	c-6.829,0.5636-7.7195,0.162-9.7637-6.8821c-5.6567-19.4926-11.1852-39.0224-16.7878-58.5308
	c-3.4889-12.1483-7.0204-24.2843-10.4847-36.2599c-7.1978-2.1591-136.4333-2.9781-154.7406-0.9438
	c-2.0723,6.4289-4.3939,13.2695-6.4833,20.1802c-7.1261,23.5718-14.1459,47.1757-21.2562,70.7522
	c-3.7131,12.3122-3.7407,12.0594-16.0417,11.066c-27.8762-2.251-55.774-4.2338-83.6617-6.3431
	c-29.5397-2.2341-59.08-4.46-88.6143-6.7639c-4.5839-0.3576-9.1367-1.1125-14.7574-1.8154
	c4.6277-14.0697,8.8658-27.2607,13.3-40.3855c23.6471-69.9957,47.3608-139.9688,71.0183-209.961
	c36.9771-109.399,73.9269-218.8073,110.894-328.2096c0.7465-2.2089,1.1077-4.7496,2.4702-6.4937
	c1.4513-1.8576,3.7047-3.4674,5.9343-4.2282c2.0936-0.7144,4.6136-0.1917,6.946-0.1918
	c67.3151-0.0022,134.63-0.0016,201.9451-0.0013c1.6663,0,3.3485,0.1531,4.9956-0.0236c4.8704-0.5224,7.1211,1.8757,8.5472,6.3557
	c5.0488,15.8596,10.4047,31.6217,15.6522,47.418c39.1292,117.7903,78.2954,235.5682,117.375,353.3748
	c19.2827,58.1279,38.4094,116.3074,57.5889,174.4694C2178.884,841.1622,2179.4094,843.3795,2180.3921,846.8941z M1871.7772,443.0893
	c-0.2537-2.2603-0.5073-4.5207-0.761-6.781c-0.7019,0.0013-1.4039,0.0026-2.1058,0.0039c-0.4095,2.2985-0.819,4.5969-1.2285,6.8954
	c-14.073,53.1156-28.146,106.2311-42.4104,160.0694c29.3593,0,57.1573,0,85.5225,0c-0.7654-3.8159-1.2971-7.0231-2.0592-10.1744
	c-4.4514-18.4091-8.9144-36.8156-13.4537-55.2032C1887.4774,506.2883,1879.615,474.6918,1871.7772,443.0893z"/>
<path class="st0" d="M3557.0742,846.4862c-5.0225,0.8685-8.2229,1.699-11.4673,1.9413
	c-47.4812,3.5457-94.9692,7.0075-142.4543,10.5025c-12.9492,0.9531-25.9097,1.7905-38.8381,2.974
	c-11.5564,1.0579-11.5242,1.2317-14.7839-10.1909c-8.1292-28.4855-16.2603-56.9702-24.4395-85.4413
	c-0.6299-2.1923-1.6392-4.2755-2.6167-6.7803c-51.0925,0-101.9785,0-153.8215,0c-2.678,8.6027-5.4819,17.3885-8.1479,26.2161
	c-6.9255,22.9358-13.7371,45.9062-20.7083,68.828c-2.6299,8.648-2.752,8.3429-11.9116,7.6003
	c-28.8765-2.3412-57.7705-4.4716-86.658-6.6765c-29.5427-2.2548-59.0881-4.4695-88.626-6.7844
	c-4.5564-0.3571-9.0781-1.1574-14.3892-1.8542c1.0615-3.7481,1.7356-6.59,2.6658-9.3453
	c36.5293-108.168,73.0842-216.3274,109.6313-324.4894c26.9595-79.7876,53.8477-159.5995,80.9141-239.351
	c6.8203-20.0963,3.1565-16.0888,22.4487-16.1475c65.3259-0.1986,130.6531-0.076,195.9797-0.076c3.6245,0,7.249,0,11.8164,0
	C3426.7517,453.6142,3491.6833,649.3583,3557.0742,846.4862z M3247.5164,439.3925c-0.8091-0.0533-1.6182-0.1067-2.427-0.16
	c-14.4846,54.5812-28.9692,109.1624-43.5034,163.9302c20.7014,2.1454,78.8691,1.2448,85.5537-1.2992
	C3273.939,547.735,3260.7275,493.5637,3247.5164,439.3925z"/>
<path class="st1" d="M3.7925,1063.3435c-3.3051-9.0742-4.4114-18.4869-3.4693-28.0206c0.3723-3.7677,2.1345-7.3979,3.2643-11.0913
	c6.5016-3.4772,12.8524-5.6429,18.436,1.6576c0.5186,0.678,1.7451,1.0485,2.683,1.1371
	c17.6304,1.6664,35.1166,2.1315,51.3663-6.7495c5.2656-2.8931,10.5305-5.7837,15.7955-8.6776
	c3.2929-1.5735,6.5859-3.1437,9.8789-4.7139c9.6361-5.3524,19.2722-10.705,28.9082-16.0575
	c3.7405-1.9479,7.4811-3.8956,11.2205-5.8442c10.358-1.0173,18.6993-6.8969,26.2869-12.9025
	c12.8411-10.1638,21.3354-24.2499,29.9487-38.0171c7.9084-7.0767,11.7005-18.1635,23.3423-21.9157
	c3.9655-1.2781,6.4594-7.2946,9.4985-11.2438c12.5989-16.3718,24.7506-32.9688,30.9735-53.1281
	c0.8463-2.7417,3.9211-5.1055,6.4622-6.9626c13.9511-10.1953,28.3514-19.7977,42.0175-30.3544
	c11.0148-8.5087,21.8585-17.4603,29.0593-29.7936c0.8099-1.3873,1.1142-3.0697,2.0098-5.6389
	c-7.2871,2.6803-12.2474,7.8138-21.3587,7.2261c7.8138-9.3654,14.3476-17.6484,21.3701-25.4939
	c7.9828-8.9183,16.8152-17.0954,24.5486-26.2137c17.4132-20.5319,34.5863-41.2767,51.4512-62.2611
	c12.069-15.0171,23.4795-30.5634,35.1838-45.8736c4.9255-4.8859,9.851-9.7719,14.7766-14.6577
	c0.7344-0.8842,1.4687-1.7685,2.203-2.6528l-0.0734,0.0793c0.6573-0.7136,1.3148-1.4273,1.9722-2.1409l-0.2318,0.0406
	c4.7267,1.1086,6.4706-2.8898,8.5381-5.5237c8.6272-10.9905,17.0629-22.1379,25.3258-33.4062
	c13.994-19.084,28.1158-37.9904,47.1951-52.5335c7.1342-5.438,14.6829-10.7141,20.5296-17.3891
	c19.2894-22.0223,38.084-44.4883,56.6888-67.0964c15.0084-18.2379,29.4689-36.9267,44.1697-55.4176
	c14.4865-18.2213,29.7985-35.8609,43.1887-54.8552c10.4894-14.8795,22.2344-27.9619,36.4918-39.2113
	c13.3013-10.4951,26.8968-21.0588,35.3765-36.2298c10.9563-19.6019,25.9277-34.4352,47.263-42.3159
	c0.9263-0.3421,1.8042-0.8782,2.6207-1.4448c10.5704-7.3362,19.2305-16.3466,24.4722-28.2803
	c0.36-0.8195,0.0471-1.9347,0.0471-3.1232c-2.5428-0.7305-4.9811-1.431-8.9108-2.5599c2.0631-5.0512,3.395-9.7803,5.8099-13.8698
	c3.3715-5.7091,8.2539-10.5866,11.2162-16.4621c4.1006-8.1331,9.9161-14.0539,17.8636-18.1261
	c5.5536-2.8456,9.5511-7.117,12.0591-12.8312c2.1365-4.8676,4.3522-9.7005,6.5328-14.5487
	c7.4945-5.2746,7.4945-5.2746,12.1741-0.201c1.377,3.5317,0.5135,8.7139,7.0076,9.3663c0.228-3.392,0.4243-6.3114,0.6205-9.2307
	c3.7112-4.8978,7.4224-9.7955,11.1335-14.6933c9.3987-11.209,18.9727-22.277,28.1335-33.677
	c5.9938-7.4588,6.2435-7.8395,17.1108-5.1023c-0.5026,3.2006-0.5549,6.6098-1.6022,9.6796
	c-4.9324,14.4588-10.3175,28.7643-15.1666,43.2499c-2.2991,6.8682-4.1981,13.9372-5.4942,21.058
	c-1.7834,9.7978-2.7945,19.5389-8.4309,28.3887c-5.2302,8.2121-7.2905,17.8569-7.7038,27.6351
	c-0.3789,8.9646-0.3724,17.9454-0.5358,26.9192c-2.3268-0.3489-4.6535-0.6978-6.9791-1.0385
	c-1.8867-3.097-4.1432-6.0444-5.5589-9.3517c-1.4212-3.3202-2.0046-6.999-2.9551-10.5207
	c-2.6221,1.9258-3.6705,3.6182-3.8716,5.4059c-0.9131,8.1192,0.377,15.996,3.7775,23.3947
	c3.1939,6.9493,6.5322,13.8575,10.2625,20.5291c5.8494,10.4615,7.4512,20.7963,3.0569,32.4987
	c-5.0267,13.3864-9.0169,27.2346-7.6797,41.9216c1.2979,14.2567,1.8892,28.6141,3.952,42.7579
	c5.5971,38.3774,8.8659,76.8242,4.5212,115.5157c-1.2173,10.8405-4.1609,21.5021-6.5674,32.1883
	c-1.3984,6.2092-5.1273,9.7049-12.0214,9.5468c-3.9586-0.0908-8.0132,0.5134-11.8736,1.4363
	c-1.449,0.3464-3.4163,2.4783-3.4188,3.7993c-0.0024,1.2979,2.0383,3.5255,3.441,3.7535
	c11.1501,1.8118,22.3646,3.9124,33.5351,0.0092c16.7753,0.2214,32.5145-5.3381,48.6188-8.8241
	c1.2858-0.2783,3.4106-2.1346,3.2488-2.7872c-1.3406-5.4069,3.1053-5.3811,5.8552-5.9177
	c6.1432-1.1984,12.4274-1.6801,18.6569-2.4309c5.5711-0.6716,11.1459-1.3127,16.7191-1.9672
	c5.2067-0.1608,10.4135-0.3217,15.6201-0.4827c8.0857-1.4464,16.4552-2.0205,24.1923-4.5383
	c12.3923-4.0327,20.0988-13.0707,20.822-26.3695c0.4337-7.977,2.1212-15.1681,7.2751-22.993
	c3.9152,1.3352,8.145,2.7794,12.3761,4.2201c2.6786,0.9121,5.3593,1.8188,8.0389,2.7279c6.4814,1.218,7.6765,7.0569,10.2325,11.7063
	c5.0059,15.6956,5.8668,31.8635,5.9047,48.1954c0.0159,6.847,0.3236,13.9253,2.0792,20.4747
	c1.9838,7.4003,0.7041,13.1315-4.8944,17.8954c-4.986,4.2426-8.0894,9.4697-10.032,15.6447
	c-1.1749,3.7346-2.9736,7.2729-4.2578,10.3402c-9.3206,3.221-18.1477,6.0922-26.8419,9.3211
	c-10.9899,4.0815-22.094,7.0096-33.9999,6.3327c-3.5546-0.202-7.1841,0.9164-10.7793,1.4299
	c-2.9377,0.0828-5.8754,0.1656-8.8131,0.2485c-8.2323,0.0413-8.2323,0.0413-9.6467-5.3232
	c3.7737-1.7498,7.5787-3.5143,11.3838-5.2787c-0.3163-0.8397-0.6326-1.6793-0.949-2.519
	c-5.3959,1.2369-11.0219,1.8735-16.1404,3.8347c-10.8716,4.1654-21.3226,9.4492-32.2509,13.4392
	c-7.1047,2.5939-14.684,4.8244-22.1628,5.2512c-13.1726,0.7518-23.3301,5.6672-31.983,15.7113
	c-6.8172,7.9131-9.1425,16.0672-6.1232,25.755c2.3743,7.6183,5.4838,15.0092,7.8057,22.6414
	c1.7925,5.892,2.8699,12.0015,4.4797,18.938c-4.2875,0-6.9874,0-9.841,0c-3.5872,7.1733-4.9586,14.7852-3.7865,22.41
	c1.7138,11.1486,4.4232,22.1428,6.6563,33.2133c2.0198,10.013,6.5035,18.6539,13.101,26.5283
	c7.9161,9.4479,13.175,20.5118,16.47,32.3799c2.8324,10.202,5.2152,20.5289,7.7969,30.8008
	c-0.9763,0.4847-1.9528,0.9691-2.9292,1.4535c-3.369-4.6216-6.7379-9.2433-10.1069-13.8649
	c-0.8274,3.9948-0.986,7.7957,0.3936,10.917c5.6133,12.7007,11.3374,25.3788,17.6943,37.7182
	c9.252,17.959,19.0531,35.6359,28.6886,53.3959c2.9996,5.5287,6.6108,10.5785,12.4383,13.5513
	c2.0306,2.4923,3.8733,5.1753,6.1494,7.4185c1.9283,1.9005,4.3578,3.2924,6.5654,4.9094
	c5.0554-1.8708,10.1107-3.7415,15.1661-5.6122c19.3412-8.6326,29.7802-27.8861,25.6676-47.8232
	c-2.0632-0.2752-4.2391-0.5655-5.4052-0.721c-0.2936-4.8765-0.4556-9.258-0.8551-13.6177c-0.2712-2.9597-1.2997-5.8962-1.2476-8.83
	c0.1287-7.251,5.4556-11.7297,14.1598-12.3843c7.4788-0.5624,9.8527,0.817,11.1663,9.2708
	c1.7323,11.1484,2.5551,22.446,3.5045,33.7017c0.1854,2.1974-0.8,4.505-1.3103,6.747c-0.9486,4.1675-2.5527,8.2888-2.7968,12.4924
	c-0.5361,9.2305-3.1571,17.6015-8.2058,25.3026c-6.376,9.7256-13.828,18.9734-18.6294,29.4313
	c-3.8137,8.3065-9.2146,14.3112-15.8726,19.8696c-4.0847,3.41-8.2394,6.8243-11.8186,10.7347
	c-9.8262,10.7357-22.1336,16.6573-36.0224,20.1344c-5.0635,1.2677-9.9281,3.545-14.683,5.7869
	c-11.4214,5.3849-23.5985,8.7235-35.7601,5.6147c-9.3212-2.3827-18.0768-3.2729-27.3923-1.6053
	c-3.2254,0.5774-6.6357,0.1218-9.9631,0.1389c-2.0535-1.0861-4.242-1.9775-6.1308-3.2979
	c-4.8491-3.3898-7.2983-8.3253-9.0943-13.8755c-1.4846-4.5878-0.8986-8.0881,2.0933-11.9614
	c1.1037-1.4288,0.3947-5.2386-0.7662-7.2094c-1.8055-3.0652-4.9859-5.287-7.0675-8.2312
	c-2.6276-3.7164-6.3792-7.6634-6.7174-11.7531c-0.6444-7.7925-4.5936-12.8635-9.7617-17.757
	c-3.6177-3.4254-7.0587-7.0416-10.5077-10.6405c-7.808-8.1474-12.6315-17.7564-14.2961-28.9749
	c-0.9235-6.2231-2.3141-12.3774-3.2205-18.6026c-1.6701-11.4706-3.2877-22.9537-4.5966-34.4691
	c-0.3766-3.3128-1.3221-7.614,3.856-8.4868c0.5809,0.2668,0.9128,0.363,1.1804,0.5508c3.0519,2.1422,4.1812,8.1342,9.1039,6.1958
	c5.0118-1.9734,2.9271-7.4462,3.5501-11.5012c0.1-0.6508,0.0139-1.3282,0.0452-1.9919
	c1.2639-26.7586-6.4865-51.8018-14.6053-76.7751c-1.569-6.0948-2.8682-12.2773-4.8088-18.2515
	c-1.153-3.5493-3.3387-6.7239-8.4687-3.9167c0.3794,2.5544,0.7604,5.1201,1.1414,7.6857c-1.4109,1.5958-2.8219,3.1915-4.2328,4.7872
	c-1.4666-1.5234-3.4374-2.809-4.2923-4.6212c-1.6676-3.5346-2.7107-7.3637-4.0101-11.059
	c-0.9515-3.1558-2.5406-6.2813-2.7544-9.4982c-1.252-18.8334-2.1823-37.688-3.221-56.5356
	c0.3794-10.7123,0.7588-21.4247,1.1382-32.137c-0.2964-3.8267-0.5929-7.6535-0.9563-12.3445
	c-6.9506,0.567-12.8959,0.6607-18.7028,1.605c-13.0711,2.1257-26.1172,4.4591-39.0945,7.0963
	c-22.049,4.4807-44.0371,9.2609-66.0508,13.9152c-6.7542,0.6313-13.5083,1.2626-20.2625,1.894
	c0.6703-2.3253,0.6132-5.4886,2.1466-6.8197c4.7046-4.0841,9.907-7.6369,15.1362-11.0598
	c3.4186-2.2379,7.2198-3.8913,12.4057-6.6276c-10.9069-1.489-15.1373-0.9958-24.6089,4.233
	c-13.0458,7.2019-26.0135,14.5929-38.6232,22.5253c-16.8665,10.6104-34.5124,18.3901-54.8582,18.3767
	c-2.6396-0.2658-5.3807-0.1703-7.8965-0.877c-4.4655-1.2542-7.2321-6.0369-5.165-10.1468
	c6.9232-13.7651,11.449-29.1027,26.3756-37.5889c6.1415-3.4916,12.1473-8.1895,14.2371-15.8422
	c0.2833-0.3463,0.5677-0.6917,0.8522-1.037c-0.3398,0.2902-0.6796,0.5803-1.0194,0.8704c-4.4753,0-8.9507,0-15.1124,0
	c2.5782-5.5338,4.1081-9.4979,6.1887-13.1483c5.0931-8.9359,10.7211-17.5768,15.5665-26.6399
	c2.4006-4.4901,3.5494-9.6495,5.2635-14.5063c-0.0012-0.0002,0.0148,0.3108,0.0148,0.3108c0.739-0.9621,1.478-1.9242,2.217-2.8863
	c0.0594-0.4654,0.3106-0.7449,0.7537-0.8387c10.087-1.8338,20.688-2.272,30.1646-5.7629
	c28.5676-10.5233,58.3947-11.8192,88.1558-14.5469c14.4784-1.3271,28.8304-4.3347,43.1438-7.0811
	c16.7487-3.2138,25.8317-13.9221,28.1898-30.6188c1.0746,0.9205,2.1323,1.8265,3.8116,3.2648
	c1.4126-3.0698,3.4022-5.4163,3.4406-7.7943c0.2722-16.8768,0.1449-33.7602,0.1449-51.1941
	c-3.5701,0.5486-5.997,0.9215-8.2903,1.274c-4.2725-10.3234-3.4979-14.7396,3.1683-21.6246
	c1.3209-1.3642,2.6227-3.1138,3.0674-4.9012c3.6319-14.5953,5.9689-29.3254,3.4874-44.4141
	c-0.6337-3.5469-1.2675-7.0938-2.2397-12.5354c-2.0385,2.9875-2.8613,4.1933-3.684,5.3991
	c-0.7558-2.0269-1.5115-4.0536-2.2572-6.0537c-7.4485,2.2196-7.4244,2.2126-9.3602-4.4663
	c-0.6256-2.1584-1.4143-4.2695-2.1285-6.4022c-0.4893-6.0411-0.9785-12.0823-1.4814-18.2939
	c-13.5925,7.7826-26.0919,14.6522-38.3025,22.0013c-16.1754,9.7354-29.9351,22.2196-40.084,38.2471
	c-4.1677,6.5815-8.8485,12.171-15.575,16.3777c-3.3818,2.1149-7.2032,5.9357-7.8155,9.5019
	c-0.903,5.2594-3.7117,8.0199-7.1816,11.213c-5.3745,4.9456-10.2419,10.4397-15.3854,15.6407
	c-1.4876,1.5042-3.1849,2.8009-4.8673,4.2633c-1.2292-2.9123-2.1865-5.1805-3.6252-8.5892
	c-3.5782,5.9715-6.7884,10.6422-9.301,15.6619c-5.6526,11.2928-10.8795,22.7976-16.428,34.1436
	c-6.2874,12.8571-12.5505,25.7119-23.9343,35.1791c-3.921,3.2609-6.0448,7.5037-5.8467,13.1277
	c0.1027,2.9152-2.2031,5.9153-3.4207,8.8771c-2.2397,1.3342-4.4795,2.6683-6.7193,4.0024c-3.7003,0.559-5.7385-0.7513-5.6236-4.7753
	c0.0989-3.4666,0.0205-6.9383,0.0205-10.4078c-0.7282-0.262-1.4565-0.524-2.1847-0.7861
	c-3.9044,5.582-8.2145,10.9294-11.6112,16.8049c-4.3231,7.4778-7.6936,15.501-11.8781,23.066
	c-3.2053,5.7947-6.3507,11.8727-10.7669,16.6823c-5.1795,5.6408-8.858,11.5117-9.7382,19.1222
	c-0.6568,5.6784-3.6482,9.782-8.5258,12.78c-6.2366,3.8333-12.1312,8.2489-18.499,11.8351
	c-5.2488,2.956-7.834,6.9426-7.4269,12.8641c0.7303,10.6213-3.8047,19.3168-9.6538,27.6855
	c-3.8023,5.4402-8.101,10.8671-10.3501,16.9731c-2.6909,7.3052-7.4721,9.9083-14.3132,9.6131
	c-9.7844-0.4221-17.4604,3.8944-24.1231,10.2145c-5.2926,5.0204-10.2556,10.4672-14.814,16.1655
	c-8.2961,10.3705-16.1831,21.0683-24.6991,32.2302c3.7892,7.8173-0.6515,13.8654-6.4336,19.3893
	c-3.6094,3.4484-7.7343,6.4106-11.0242,10.1256c-3.7019,4.1802-8.0654,8.5098-9.7726,13.5729
	c-3.91,11.596-11.243,20.2416-20.1171,28.0188c-4.2584,3.732-8.6413,7.3383-12.6911,11.2855
	c-2.0828,2.0302-3.706,4.5904-5.274,7.0769c-2.4222,3.8413-3.9976,8.4116-7.0364,11.63
	c-7.0766,7.4951-14.4911,14.7494-22.3725,21.3839c-7.5398,6.347-13.632,13.4902-17.9327,22.3788
	c-1.8496,3.8226-4.3645,7.6461-7.5084,10.4099c-2.206,1.9393-6.0474,2.9479-9.0442,2.7382c-2.0722-0.145-3.9493-3.077-6.4231-5.2012
	c-17.3156,26.8995-43.2971,46.1392-64.8551,71.035c7.8395-1.7267,11.837-11.4259,20.9037-6.1474
	c-0.4706,3.0353-0.9178,5.9191-1.365,8.8029c-0.4279,1.7524-0.8559,3.5049-1.2838,5.2573
	c-4.6162,4.6963-8.821,9.9069-13.9272,13.9905c-14.2112,11.3656-29.4921,21.3866-41.3782,35.5399
	c-4.4587,5.3093-10.1488,9.58-15.2366,14.3676c-2.1662,2.0383-4.7538,3.8719-6.2394,6.3455
	c-4.6873,7.8044-11.7172,12.4052-19.7349,16.0629c-6.347,2.8954-12.5323,6.1583-18.7008,9.4253
	c-2.3187,1.228-5.0645,2.468-6.4432,4.4987c-4.0825,6.0123-10.2997,8.0212-16.5892,10.2413
	c-11.5432,4.0745-23.4401,4.3402-35.4812,3.8588c-10.6432-0.4258-19.4041-3.1792-24.0652-14.1897
	c-2.3586-5.5715-10.9446-8.998-15.227-5.5394c-4.8006,3.877-8.0608,1.7037-12.1529,0.453
	C12.673,1073.9927,7.7426,1069.2924,3.7925,1063.3435z"/>
<path class="st0" d="M6513.8438,417.1151c-4.6587,0.1601-9.3174,0.4562-13.9761,0.4593
	c-49.9814,0.0335-99.9634,0.0207-149.9448,0.0206c-3.604,0-7.2075,0-10.5552,0c-2.1958,7.9098-2.5762,39.5036-0.6572,52.3894
	c36.2134,0,72.6519,0,109.7612,0c0,51.7922,0,102.2827,0,154.0873c-8.8564,1.6553-18.1064,0.5484-27.2363,0.7504
	c-8.9922,0.1989-17.9927,0.0434-26.9893,0.0434c-9.3301,0-18.6597,0-27.9897,0c-8.978,0-17.9561,0-26.7422,0
	c-2.3867,7.2847-2.9268,42.4684-0.8271,57.1859c20.2671,0.0444,40.771,0.1068,61.2744,0.1293
	c20.3257,0.0225,40.6519,0.0049,60.9775,0.0049c20.5889,0,41.1772,0,63.4219,0c-12.0059,56.891-24.4595,112.2086-36.6621,168.0048
	c-113.2451,0-225.6445,0-337.8804,0c-2.3184-9.2739-2.1943-583.8937,0.1211-592.2172c108.6802,0,217.5195,0,327.2959,0
	c0.8823,2.8442,2.0566,5.8712,2.7563,9.0043c10.519,47.0883,20.9766,94.1902,31.4424,141.2904
	c0.5405,2.4299-0.0454,5.8043,4.2813,4.9374C6518.6221,416.1986,6516.46,416.7657,6513.8438,417.1151z"/>
<path class="st0" d="M945.0406,191.2467c0.1634-8.9737,0.1569-17.9546,0.5358-26.9191c0.4133-9.7782,2.4736-19.423,7.7038-27.6351
	c5.6364-8.8498,6.6475-18.5909,8.4309-28.3887c1.2961-7.1208,3.1951-14.1898,5.4942-21.058
	c4.8491-14.4856,10.2342-28.7911,15.1666-43.2499c1.0472-3.0699,1.0996-6.4791,1.6022-9.6796
	c-10.8673-2.7372-11.1171-2.3565-17.1108,5.1023c-9.1609,11.4-18.7349,22.4681-28.1339,33.6772
	c-3.3056-0.2274-6.6109-0.6538-9.9162-0.6541C647.9728,72.411,367.1324,72.4118,86.292,72.4324
	c-3.2288,0.0002-6.4575,0.2876-10.6043,0.4844c0,4.5598,0,8.4869,0,12.414c0,280.8404-0.0018,561.6808,0.0179,842.5211
	c0.0003,3.9861,0.2699,7.9722,0.4138,11.9583c-5.7133,7.8965-11.4266,15.793-17.1517,23.7059
	c-1.8341-1.488-3.0592-2.4819-3.7671-3.0562c-5.3293,5.3858-11.4493,9.7769-15.0059,15.7057
	c-3.1096,5.184-11.9067,9.1011-6.5786,17.8003c0.4562,0.7449-1.1115,2.8999-1.9797,4.2444c-1.2121,1.8771-2.6511,3.6075-4.731,6.387
	c4.7721-0.3024,8.2766-0.5245,11.7212-0.7428c5.9614,7.2732,12.3907,8.797,22.6911,5.3748
	c-0.5774-3.0193-1.1595-6.0631-1.8135-9.4829c2.57,0.616,4.5153,1.0823,5.3456,1.2813
	c3.6335-13.1216,7.0377-25.4152,10.4419-37.7088c0.3593,1.741,0.9448,3.4742,2.9138,1.431
	c4.4731-4.6419,8.7834-9.4408,13.16-14.1758c3.3358,1.1888,2.7614,3.8524,2.2505,6.3379c-0.7007,3.4091-1.6097,6.7754-2.4294,10.16
	c-1.7939,4.5225-3.7601,8.9863-5.3211,13.5879c-1.0386,3.0614-1.4141,6.3412-2.2336,9.4849
	c-2.5363,9.7302-5.1464,19.4414-7.7058,29.1656c-0.0763,0.2899,0.0917,0.6443,0.1458,0.9686
	c-16.2491,8.8788-33.7354,8.4137-51.3657,6.7473c-0.9379-0.0886-2.1644-0.4591-2.683-1.1371
	c-5.5836-7.3005-11.9344-5.1348-18.436-1.6576c-0.1299-3.991-0.3726-7.9824-0.3728-11.9739
	C3.1972,678.9351,3.1986,345.6125,3.1986,12.29c0-3.9191,0-7.8382,0-12.29C378.3195,0,752.476,0,1128.0835,0
	c0,144.7105,0,289.2223,0.0005,433.7322c-2.6791-0.9109-5.3597-1.8176-8.0383-2.7297c-4.2311-1.4407-8.4609-2.8849-12.3761-4.2201
	c-5.1539,7.8249-6.8414,15.016-7.2751,22.993c-0.7233,13.2988-8.4297,22.3369-20.822,26.3695
	c-7.7371,2.5178-16.1066,3.0919-24.1921,4.5384c0.0302-133.6094,0.0636-267.2189,0.0593-400.8285
	c-0.0001-2.2367-0.459-4.4734-0.7272-6.9235c-21.7184,0-42.9291,0-64.4422,0c-1.7871,5.0262-3.4464,9.6928-5.1057,14.3595
	c-5.9985,10.384-10.5867,21.146-11.5729,33.3881c-0.5507,6.8352-1.0841,14.4861-4.4098,20.1282
	c-9.3286,15.8259-12.3718,32.634-11.7113,50.5441c0.1394,3.7794,0.0203,7.5684,0.0203,11.8775
	C949.3716,201.9812,945.8887,197.9173,945.0406,191.2467z"/>
<path class="st0" d="M2820.3635,493.6445c35.9307,0,70.7688,0,105.3042,0c2.1538,8.0371,2.8625,142.2504,0.9409,158.891
	c-11.2234,0.8184-22.7712,0.2524-34.2754,0.3493c-11.9968,0.101-23.9951,0.0225-35.9929,0.0225
	c-11.5955,0-23.1909,0.0001-35.9282,0.0001c0,63.7634,0,126.5853,0,190.3258c-63.1807,6.3033-125.2981,12.5005-187.2129,18.6774
	c-2.4238-8.782-2.5742-594.4667-0.2773-604.0227c2.9934-0.1506,6.2314-0.4549,9.4695-0.4558
	c94.3154-0.0259,188.6309-0.0248,282.9463-0.017c10.0884,0.0009,10.0996,0.0292,12.699,9.6698
	c13.2529,49.1519,26.5068,98.3036,39.7292,147.4637c0.6802,2.5289,1.0737,5.1349,1.8828,9.082
	c-3.9619,0.3156-7.3938,0.8231-10.8262,0.8271c-45.3247,0.0527-90.6494,0.0347-135.9741,0.0343c-3.6157,0-7.2314,0-11.8513,0
	C2819.8325,447.7226,2820.6882,470.1537,2820.3635,493.6445z"/>
<path class="st0" d="M6513.8438,417.1151c2.6162-0.3493,4.7783-0.9164,1.8716-3.9096c1.0044-4.6718,2.0093-9.3436,3.0132-14.0153
	c2.5029-0.7281,3.7075-1.8138,1.0889-3.9528c1.5718-6.6836,3.1436-13.3672,4.7153-20.0508c2.6055-0.6786,3.958-1.7257,1.1724-3.9889
	c0.1909-1.3387,0.3823-2.6774,0.5737-4.0161c2.6396-0.5846,4.3042-1.5044,1.3755-4.0026c0.3677-1.9962,0.7358-3.9925,1.1035-5.9887
	c2.4751-0.6974,3.644-1.7762,1.1455-3.9251c0.2329-1.3586,0.4653-2.7173,0.6982-4.0759c2.5127-0.6672,3.8901-1.6845,1.2183-3.9511
	c1.5313-6.6848,3.0625-13.3696,4.5938-20.0544c2.6567-0.6452,4.1138-1.6599,1.2339-4.0092
	c0.9878-4.6619,1.9761-9.3237,2.9639-13.9856c2.5093-0.6689,3.877-1.689,1.2158-3.9492c0.2324-1.3507,0.4648-2.7015,0.6973-4.0522
	c2.5815-0.665,3.9854-1.6877,1.2085-3.9798c2.7349-11.3422,5.4697-22.6844,8.2046-34.0266
	c127.6387,0.0054,255.2778,0.0108,382.9165,0.0162c0.1533,2.9709,0.4395,5.9417,0.4409,8.9127
	c0.0278,49.748,0.0381,99.4959-0.0229,149.2438c-0.0039,3.251-0.6157,6.5012-0.9438,9.7519
	c-31.3794,0.0168-62.7593-0.0126-94.1392,0.1143c-3.5186,0.0142-7.0342,0.9136-10.5508,1.4025l-0.1216,0.5164l-0.5088-0.1459
	c-5.7427,2.4138-3.2456,7.4949-3.2495,11.349c-0.1343,129.0923-0.0942,258.1847-0.186,387.2771
	c-0.0029,4.1968-1.1133,8.3929-1.7075,12.5892c-2.7588,0.2775-5.5171,0.5551-8.2759,0.8327
	c-5.0083-3.9001-9.1274,1.0885-13.7178,1.3722c-2.0938,0.2111-4.187,0.4222-6.2803,0.6333
	c-5.7119-4.3259-10.6382-0.3132-15.7729,1.4863c-2.0698,0.1872-4.1401,0.3744-6.2095,0.5616
	c-3.7778-3.308-6.979-2.3541-9.812,1.3266c-3.3975,0.2206-6.7954,0.4413-10.1929,0.662c-3.7295-2.6425-7.2744-3.8986-9.9497,1.3328
	c-4.002,0.2524-8.0039,0.5048-12.0054,0.7573c-2.395-2.7159-4.4531-2.9128-5.9888,0.8004
	c-4.6611,0.4242-9.3223,0.8484-13.9829,1.2726c-3.8325-4.3319-6.6733-0.2754-9.8242,1.1613
	c-2.0854,0.2175-4.1704,0.435-6.2559,0.6525c-5.0093-3.9381-9.1343,1.0729-13.7266,1.3571
	c-2.0923,0.2136-4.1846,0.4272-6.2764,0.6409c-5.7178-4.3505-10.6445-0.3207-15.7808,1.4894
	c-2.0669,0.1867-4.1333,0.3735-6.1997,0.5602c-2.2876-0.4594-4.5747-1.2697-6.8638-1.2759
	c-2.1279-0.0057-4.2588,0.8457-6.3882,1.3197c-0.3179-3.9361-0.9131-7.8721-0.9146-11.8083
	c-0.0479-134.8655-0.0205-269.7311-0.1255-404.5966c-0.0029-4.1343-1.2915-8.2676-1.9795-12.4008
	c-3.5552-0.3961-7.1099-1.1275-10.667-1.1373c-32.4688-0.0889-64.9385-0.1647-97.4063,0.0446
	c-6.3379,0.0408-11.8062-0.9182-15.8564-6.1685C6513.5562,421.0945,6513.6997,419.1048,6513.8438,417.1151z"/>
<path class="st0" d="M2212.2534,265.3637c62.6655-4.8473,124.8928-9.6606,188.6304-14.5908
	c0.0947,13.6325,0.2173,26.1557,0.2593,38.6791c0.0437,12.9945,0.0098,25.9893,0.0098,38.9839c0,12.6614,0,25.3229,0,37.9843
	s0,25.3229,0,37.9843c0,12.9947,0,25.9893,0,38.9839c0,12.6614,0,25.3229,0,37.9843c0,12.9946,0,25.9893,0,38.9839
	c0,12.6614,0,25.3229,0,37.9844s0,25.3229,0,37.9843c0,12.9946,0,25.9893,0,38.9839c0,12.5718,0,25.1436,0,38.7616
	c66.5803,0,132.0522,0,199.0737,0c-1.7761,8.3286-3.1814,15.3604-4.7808,22.3478c-11.1365,48.6564-22.2903,97.3089-33.499,145.9487
	c-1.927,8.3621-2.0603,8.4545-10.4216,8.4566c-110.2878,0.0273-220.5757,0.0217-330.8635-0.0095
	c-2.5906-0.0007-5.1812-0.3939-8.4082-0.6556C2212.2534,655.5438,2212.2534,461.4464,2212.2534,265.3637z"/>
<path class="st0" d="M1055.4957,575.0708c3.5952-0.5134,7.2247-1.6318,10.7793-1.4299c11.9059,0.6769,23.01-2.2512,33.9999-6.3327
	c8.6942-3.2289,17.5214-6.1001,26.8419-9.3211c1.2842-3.0673,3.0829-6.6056,4.2578-10.3402
	c1.9426-6.1749,5.046-11.4021,10.032-15.6447c5.5985-4.7639,6.8782-10.4951,4.8944-17.8954
	c-1.7556-6.5494-2.0634-13.6277-2.0792-20.4747c-0.0378-16.3319-0.8988-32.4999-5.9047-48.1954
	c5.8047,0.1318,8.7251,3.6059,10.8846,8.6196c7.1753,16.6593,8.5297,34.2876,7.449,51.9195
	c-0.4236,6.9122,0.3126,13.1143,2.147,19.4568c1.7894,6.1871,1.3441,11.6463-3.3442,16.6528
	c-3.5718,3.8141-7.04,7.9206-9.5907,12.4408c-2.5724,4.5588-3.9564,9.7881-6.0499,15.2131
	c-3.401,1.1488-7.1251,2.4067-11.545,3.8997c0,183.4771,0,366.9212,0,551.0433c-375.0819,0-749.3804,0-1124.9596,0
	c0.0307-20.3707-0.7106-40.8423,0.484-61.339c3.9503,5.949,8.8807,10.6493,15.9127,12.7986
	c4.0921,1.2507,7.3524,3.424,12.1529-0.453c4.2824-3.4586,12.8684-0.0321,15.227,5.5394
	c4.6611,11.0105,13.4221,13.7639,24.0652,14.1897c12.0411,0.4814,23.938,0.2157,35.4812-3.8588
	c6.2894-2.2201,12.5067-4.229,16.5892-10.2413c1.3787-2.0306,4.1245-3.2706,6.4432-4.4987
	c6.1685-3.267,12.3538-6.5299,18.7008-9.4253c8.0177-3.6577,15.0476-8.2584,19.7349-16.0629
	c1.4856-2.4735,4.0732-4.3071,6.2394-6.3455c5.0879-4.7876,10.7779-9.0582,15.2366-14.3676
	c11.8861-14.1533,27.167-24.1743,41.3782-35.5399c5.1061-4.0836,9.311-9.2942,13.9342-13.9958
	c4.6017-1.7762,8.5926-6.8964,14.7467-2.4044c-0.8174,8.1738-2.047,16.3811-8.8386,22.1014
	c-8.5455,7.1975-17.1641,14.4108-26.41,20.6393c-6.4046,4.3145-12.2089,8.8523-16.4424,15.3036
	c-4.8598,5.0314-10.9068,9.0468-14.4781,15.8878c80.361,2.5337,853.0118,1.2068,861.2528-1.355c0-16.4734,0-32.8418,0-49.9498
	c-5.642,4.1549-10.4293,7.6804-15.2168,11.2061c-4.7206,1.5818-9.4877,3.0382-14.151,4.7737
	c-7.4128,2.7588-14.681,5.92-22.1459,8.5216c-12.9802,4.5234-25.9482,8.0275-39.8671,2.8597
	c-4.4036-1.635-9.7671-0.9205-14.6857-0.8547c-3.6314,0.0485-7.2566,1.1726-10.8792,1.1436
	c-8.314-0.0665-14.763-3.3345-17.6829-11.7245c3.3259-0.0164,6.7361,0.4392,9.9615-0.1382
	c9.3154-1.6676,18.0711-0.7773,27.3923,1.6053c12.1616,3.1088,24.3387-0.2299,35.7601-5.6147
	c4.7549-2.2418,9.6195-4.5192,14.683-5.7869c13.8888-3.4771,26.1962-9.3987,36.0224-20.1344
	c3.5792-3.9104,7.7339-7.3247,11.8186-10.7347c6.658-5.5584,12.0588-11.5632,15.8726-19.8696
	c4.8014-10.4578,12.2534-19.7056,18.6294-29.4313c5.0487-7.701,7.6697-16.0721,8.2058-25.3026
	c0.244-4.2036,1.8481-8.325,2.7968-12.4924c0.5103-2.242,1.4957-4.5496,1.3103-6.747c-0.9495-11.2557-1.7722-22.5533-3.5045-33.7017
	c-1.3136-8.4537-3.6875-9.8332-11.1663-9.2708c-8.7042,0.6546-14.0311,5.1334-14.1598,12.3843
	c-0.0521,2.9338,0.9763,5.8704,1.2476,8.83c0.3995,4.3597,0.5615,8.7412,0.8551,13.6177c1.166,0.1555,3.3419,0.4458,5.4052,0.721
	c4.1125,19.9371-6.3264,39.1907-25.6676,47.8233c0.0001-4.8303,0.0001-9.6607,0.0001-13.9352
	c-6.0017-1.2815-11.0181-2.3525-16.0345-3.4236c-4.9828-1.3354-6.5302-3.7151-6.3335-9.741c2.814-0.2673,5.6219-0.543,9.3735-0.9115
	c-6.6776-8.7939-12.5372-16.3097-18.1771-23.987c-7.6362-10.3947-15.1035-20.9133-22.6432-31.3788
	c6.8912,2.3012,9.1771,9.02,13.2192,13.9902c8.2788,10.1801,16.2579,20.6039,24.3604,30.9274
	c4.8016,6.4385,9.6033,12.8771,14.4049,19.3157c0.4673-0.2949,0.9344-0.5898,1.4017-0.8848c0-104.7841,0-209.5681,0-314.2064
	c-8.5039-4.2873-8.5074-4.8502-1.0398-10.2537C1054.9354,577.8832,1055.0431,576.2386,1055.4957,575.0708z"/>
<path class="st0" d="M6823.8647,842.2084c0.5942-4.1964,1.7046-8.3925,1.7075-12.5893
	c0.0918-129.0923,0.0518-258.1848,0.186-387.2771c0.0039-3.8542-2.4932-8.9352,3.249-11.349
	c-0.1304,3.9904-0.3721,7.9806-0.3726,11.9709c-0.0186,129.2097-0.0137,258.4195-0.0161,387.6292
	c0,2.6628,0.1177,5.3389-0.105,7.9848C6828.2861,841.276,6826.9053,842.9096,6823.8647,842.2084z"/>
<path class="st0" d="M6934.854,261.1974c-127.6387-0.0054-255.2778-0.0108-382.9165-0.0161
	c1.2549-1.2228,2.3389-3.1594,3.8027-3.5104c2.5269-0.6057,5.2905-0.2551,7.9551-0.2552
	c120.2861-0.0049,240.5728-0.0051,360.8589,0.001c2.6641,0.0001,5.396-0.2469,7.958,0.2861
	C6933.4922,257.9068,6934.0845,259.9775,6934.854,261.1974z"/>
<path class="st0" d="M6513.4126,423.0843c4.0498,5.2503,9.5181,6.2093,15.856,6.1685c32.4678-0.2094,64.9375-0.1335,97.4063-0.0446
	c3.5571,0.0097,7.1118,0.7411,10.667,1.1373c-11.2822,0.1664-22.562,0.4472-33.8433,0.4774
	c-26.5791,0.0711-53.1577,0.0227-79.7368,0.0226c-3.6265,0-7.2534,0-12.5327,0
	C6512.1563,427.5506,6512.7842,425.3174,6513.4126,423.0843z"/>
<path class="st0" d="M6829.6382,430.6226c3.5166-0.4889,7.0322-1.3883,10.5508-1.4025c31.3799-0.1269,62.7598-0.0976,94.1392-0.1143
	c-1.73,0.581-3.459,1.667-5.1885,1.6683C6895.9727,430.7997,6862.8052,430.6979,6829.6382,430.6226z"/>
<path class="st0" d="M6779.8179,846.5328c5.1348-1.7995,10.061-5.8122,15.7729-1.4863
	C6790.333,845.542,6785.0752,846.0374,6779.8179,846.5328z"/>
<path class="st0" d="M6659.813,858.5472c5.1362-1.8102,10.063-5.84,15.7808-1.4895
	C6670.333,857.5543,6665.0732,858.0508,6659.813,858.5472z"/>
<path class="st0" d="M6640.3613,859.1512c2.1294-0.474,4.2603-1.3254,6.3882-1.3197c2.2891,0.0062,4.5762,0.8165,6.8638,1.2759
	C6649.2002,860.5416,6644.79,862.5989,6640.3613,859.1512z"/>
<path class="st0" d="M6801.8711,844.4132c4.5903-0.2837,8.7095-5.2723,13.7178-1.3721
	C6811.0161,843.4985,6806.4438,843.9559,6801.8711,844.4132z"/>
<path class="st0" d="M6743.6538,850.4158c2.6753-5.2313,6.2202-3.9753,9.9497-1.3328
	C6750.2871,849.5273,6746.9702,849.9715,6743.6538,850.4158z"/>
<path class="st0" d="M6681.8701,856.4167c4.5923-0.284,8.7173-5.295,13.7266-1.3569
	C6691.021,855.5121,6686.4458,855.9644,6681.8701,856.4167z"/>
<path class="st0" d="M6763.7964,848.421c2.833-3.6807,6.0342-4.6346,9.812-1.3267
	C6770.3374,847.5366,6767.0669,847.9788,6763.7964,848.421z"/>
<path class="st0" d="M6701.8525,854.4073c3.1509-1.4366,5.9917-5.4932,9.8242-1.1613
	C6708.4019,853.6332,6705.127,854.0203,6701.8525,854.4073z"/>
<path class="st0" d="M6725.6597,851.9734c1.5356-3.7132,3.5938-3.5162,5.9888-0.8004
	C6729.6519,851.4399,6727.6558,851.7067,6725.6597,851.9734z"/>
<path class="st0" d="M6537.6475,321.1744c2.8799,2.3494,1.4229,3.364-1.2344,4.0092
	C6536.8247,323.8472,6537.2358,322.5108,6537.6475,321.1744z"/>
<path class="st0" d="M6519.8174,395.2374c2.6187,2.1389,1.4141,3.2246-1.0889,3.9528
	C6519.0918,397.8726,6519.4546,396.555,6519.8174,395.2374z"/>
<path class="st0" d="M6525.7051,371.1977c2.7856,2.2631,1.4331,3.3102-1.1724,3.9889
	C6524.9238,373.857,6525.3145,372.5274,6525.7051,371.1977z"/>
<path class="st0" d="M6543.7329,295.2077c2.7769,2.2921,1.373,3.3148-1.2085,3.9798
	C6542.9272,297.8609,6543.3301,296.5343,6543.7329,295.2077z"/>
<path class="st0" d="M6527.6543,363.179c2.9287,2.4982,1.2642,3.418-1.3755,4.0026
	C6526.7373,365.8474,6527.1958,364.5132,6527.6543,363.179z"/>
<path class="st0" d="M6541.8267,303.2397c2.6616,2.2602,1.2939,3.2803-1.2153,3.9492
	C6541.0166,305.8725,6541.4214,304.5561,6541.8267,303.2397z"/>
<path class="st0" d="M6529.9033,353.2651c2.4985,2.1489,1.3296,3.2277-1.1455,3.9252
	C6529.1401,355.8819,6529.5215,354.5735,6529.9033,353.2651z"/>
<path class="st0" d="M6531.8203,345.2382c2.6714,2.2665,1.2939,3.2839-1.2188,3.9511
	C6531.0078,347.8723,6531.4141,346.5552,6531.8203,345.2382z"/>
<path class="st2" d="M5290.3438,561.7621c0-48.1269,0-93.9503,0-140.6616c13.0459-1.0848,25.4038,0.9175,37.2754,4.8882
	c22.5801,7.5523,36.9297,22.9371,41.7515,46.6234c2.3521,11.555,2.4097,23.1339,0.2168,34.7067
	c-5.8105,30.6584-27.3218,46.6403-53.9429,51.4581C5307.6099,560.231,5299.4009,560.723,5290.3438,561.7621z"/>
<path class="st2" d="M4716.0854,603.0963c14.7202-55.5234,29.1646-110.0051,43.6089-164.4867
	c0.6709-0.0501,1.3413-0.1002,2.0122-0.1502c13.3257,54.5859,26.6514,109.1718,40.1919,164.6369
	C4773.3789,603.0963,4745.6475,603.0963,4716.0854,603.0963z"/>
<path class="st3" d="M1871.7772,443.0893c7.8378,31.6025,15.7002,63.199,23.5038,94.8101
	c4.5393,18.3876,9.0023,36.7941,13.4537,55.2032c0.7621,3.1514,1.2938,6.3585,2.0592,10.1744c-28.3651,0-56.1632,0-85.5225,0
	c14.2644-53.8383,28.3374-106.9538,42.4104-160.0695C1869.047,443.168,1870.4121,443.1287,1871.7772,443.0893z"/>
<path class="st4" d="M1871.7772,443.0893c-1.3651,0.0394-2.7302,0.0787-4.0953,0.1182c0.4095-2.2984,0.819-4.5969,1.2285-6.8953
	c0.7019-0.0013,1.4039-0.0026,2.1058-0.0039C1871.2699,438.5686,1871.5236,440.8289,1871.7772,443.0893z"/>
<path class="st3" d="M3247.5164,439.3925c13.2112,54.1712,26.4226,108.3425,39.6233,162.471
	c-6.6846,2.5439-64.8523,3.4446-85.5537,1.2992c14.5342-54.7678,29.0188-109.349,43.5034-163.9302
	C3245.8982,439.2858,3246.7073,439.3391,3247.5164,439.3925z"/>
<path class="st5" d="M91.187,967.0719c0.8197-3.3846,1.7287-6.7509,2.4294-10.16c0.5109-2.4855,1.0853-5.149-2.2504-6.3379
	c0.0547-4.3316,0.1568-8.6631,0.157-12.9948c0.0078-219.3047,0.0068-438.6094,0.0068-657.9141
	c0-60.3254-0.0074-120.6509,0.0187-180.9763c0.0015-3.5174,0.2747-7.0348,0.4465-11.1516c5.0173,0,8.9694,0,12.9216,0
	c263.6322,0,527.2645-0.0014,790.8967,0.0132c3.9936,0.0002,7.9872,0.1983,11.9808,0.304
	c-2.1806,4.8483-4.3962,9.6811-6.5328,14.5487c-2.5081,5.7142-6.5055,9.9856-12.0591,12.8312
	c-7.9476,4.0722-13.763,9.993-17.8636,18.1261c-2.9623,5.8755-7.8447,10.753-11.2162,16.4621
	c-2.4149,4.0895-3.7468,8.8187-5.8099,13.8698c3.9297,1.1289,6.368,1.8294,8.9108,2.5599c0,1.1885,0.3129,2.3037-0.0471,3.1232
	c-5.2416,11.9337-13.9017,20.9441-24.4722,28.2803c-0.8165,0.5667-1.6944,1.1027-2.6207,1.4448
	c-21.3353,7.8807-36.3067,22.714-47.263,42.3159c-8.4797,15.171-22.0751,25.7346-35.3765,36.2298
	c-14.2573,11.2494-26.0023,24.3318-36.4918,39.2113c-13.3902,18.9943-28.7023,36.6339-43.1887,54.8552
	c-14.7009,18.4909-29.1614,37.1797-44.1697,55.4176c-18.6049,22.6082-37.3994,45.0742-56.6888,67.0964
	c-5.8467,6.675-13.3954,11.951-20.5296,17.3891c-19.0793,14.5432-33.201,33.4495-47.1951,52.5335
	c-8.2629,11.2682-16.6986,22.4157-25.3258,33.4062c-2.0675,2.6339-3.8114,6.6323-8.538,5.5233
	c0.0002-1.8774,0.0002-3.7545,0.0002-6.4323c-6.0374,0.6061-11.8143,1.1862-17.588,1.7621c1.913-3.9767,3.8227-7.9492,6.264-13.0276
	c-4.3102,0.3688-7.1341,0.9835-9.8971,0.778c-8.8269-0.6566-13.5529,3.762-12.2006,12.537
	c0.8513,5.5239,2.8002,10.8785,4.2567,16.3091c-10.9182,11.6249-21.7453,23.3373-32.7896,34.8412
	c-6.3774,6.6428-13.1056,12.9489-19.6759,19.4067c-0.9734-6.9833,4.6282-10.5012,8.0177-15.1771
	c2.3159-3.1948,6.5279-6.2947,6.6129-9.5233c0.1236-4.6987,2.682-7.1509,4.8777-10.2628
	c6.836-9.6885,13.683-19.3694,20.5249-29.0539c0.2778-0.364,0.5565-0.7272,0.8351-1.0903
	c-0.3389,0.3034-0.6779,0.6069-1.0168,0.9103c-5.1069,4.5133-10.6182,8.6484-15.2524,13.6039
	c-22.8686,24.4537-45.5592,49.0749-68.1959,73.744c-8.8033,9.5936-17.3107,19.4592-25.8938,29.2527
	c-0.306,0.3492,0.0182,1.2507,0.0646,2.2302c7.2644,4.3868,12.0474-1.2084,16.4934-4.3853c3.3674,0.4857,5.8885,0.8494,8.4095,1.213
	c-2.9164,6.1633-11.7262,7.3825-13.3167,15.3466c8.4008,3.9306,13.1547-2.1918,18.0939-5.9014
	c2.0775,1.3642,3.5696,2.3439,3.8246,2.5114c9.2855-9.4539,18.4587-17.5543,26.1317-26.8879
	c12.4115-15.098,23.8446-31.0007,35.662-46.5856c0.7874-1.0384,2.0377-2.3804,1.8701-3.3795
	c-0.9209-5.4892,3.1617-8.4819,5.7231-12.1864c6.5759-9.5104,13.2763-18.9348,19.9269-28.3936
	c1.772-2.4688,3.544-4.9375,5.3159-7.4063c1.4251,4.8597,2.8503,9.7194,4.2754,14.5792
	c-11.7043,15.3102-23.1147,30.8565-35.1838,45.8736c-16.8649,20.9844-34.038,41.7292-51.4512,62.2611
	c-7.7333,9.1183-16.5657,17.2955-24.5486,26.2137c-7.0225,7.8455-13.5562,16.1285-21.3701,25.4939
	c9.1113,0.5876,14.0716-4.5458,21.3587-7.2261c-0.8956,2.5692-1.1999,4.2516-2.0098,5.6389
	c-7.2009,12.3333-18.0446,21.2849-29.0593,29.7936c-13.6661,10.5567-28.0664,20.1591-42.0175,30.3544
	c-2.5411,1.8571-5.6158,4.2209-6.4622,6.9626c-6.2228,20.1594-18.3746,36.7563-30.9735,53.1281
	c-3.0391,3.9492-5.5331,9.9656-9.4985,11.2438c-11.6418,3.7522-15.434,14.8391-23.343,21.9084
	c-1.0394-1.2141-2.0781-2.4208-3.5202-4.0963c-1.8557,2.419-3.2787,4.5507-5.0334,6.3607
	c-0.4231,0.4364-1.9449-0.1923-2.9614-0.3312c-0.4592-2.3671-1.3076-4.7377-1.2858-7.1003
	c0.0323-3.4973,1.3508-7.1795-3.4123-10.173c-9.1048,9.1329-18.8651,17.5938-26.9696,27.4203
	c-8.3981,10.1825-19.3411,18.1563-28.0118,30.6345c10.6395-5.3502,19.1997-9.7735,27.8746-13.959
	c3.4625-1.6706,7.1781-2.8166,10.7785-4.2014c-2.3895,3.111-4.5664,6.4177-7.2133,9.2916
	c-5.3582,5.818-10.9711,11.4015-16.4791,17.0815c-3.7406,1.9479-7.4811,3.8956-11.2159,5.8345
	c-5.7587-0.3827-9.8898-4.2594-14.6126-6.837c0.526-1.467,1.036-2.9294,1.4586-4.1412c-0.5924-0.6506-0.7618-0.9868-1.0285-1.1071
	c-4.0699-1.8351-8.0801-4.8578-12.2531-5.1066c-4.0077-0.2389-8.1872,2.403-12.2912,3.7789
	C91.6852,973.9612,91.4361,970.5165,91.187,967.0719z"/>
<path class="st5" d="M207.9435,1036.7223c4.2335-6.4513,10.0378-10.9891,16.4424-15.3036
	c9.2459-6.2285,17.8645-13.4418,26.41-20.6393c6.7915-5.7203,8.0212-13.9276,8.8386-22.1014
	c-6.1541-4.4919-10.1451,0.6282-14.7467,2.4044c0.4209-1.7471,0.8488-3.4995,1.2773-5.2487
	c20.796-19.5021,41.5905-39.0083,58.4621-62.5214c4.6084,6.7974,9.0225,8.0097,14.0324,3.3446
	c3.5589-3.314,6.507-7.609,8.7156-11.9778c4.1437-8.1968,9.8084-14.8271,16.7108-20.8466
	c8.7688-7.6472,16.9249-16.0075,25.1741-24.2318c1.8105-1.8049,2.9174-4.3213,4.3194-6.5284
	c2.2526-3.5461,3.9939-7.5701,6.8308-10.5566c4.5712-4.8127,9.9008-8.8986,14.8325-13.377
	c6.7273-6.1089,12.7504-12.8559,15.5045-21.6981c2.4849-7.9778,7.3432-13.9783,13.4938-19.3581
	c4.7424-4.1481,9.2404-8.6379,13.3956-13.3721c2.5866-2.947,4.5135-6.3197,2.7343-10.9459c-0.7112-1.849,0.4185-5.115,1.7806-6.9349
	c7.577-10.123,15.4614-20.0167,23.2811-29.957c10.7488-13.6637,22.4846-25.6398,41.803-25.22
	c4.3742,0.0952,6.9616-2.3079,8.9876-6.5056c3.307-6.8516,7.3778-13.399,11.6979-19.6818
	c5.9942-8.7175,10.6121-17.7233,9.6302-28.6926c-0.4374-4.8856,1.75-8.1337,5.8526-10.6497
	c6.8105-4.1768,13.5999-8.429,20.0646-13.11c2.8464-2.0611,6.5829-5.0256,6.9742-7.9706
	c1.5868-11.946,8.0956-20.8092,15.7351-29.3201c1.7427-1.9415,2.8267-4.5033,4.0793-6.8514
	c7.0363-13.1902,14.0315-26.4024,21.0408-39.6071c2.2398-1.3341,4.4796-2.6682,6.7186-4.0015
	c0.7721,5.1411-2.272,10.8566,2.2283,15.7616c3.1885-0.775,6.2054-1.5084,9.2225-2.2416c-1.7152,4.8566-2.864,10.016-5.2646,14.5061
	c-4.8454,9.063-10.4734,17.704-15.5665,26.6399c-2.0806,3.6504-3.6104,7.6145-6.1887,13.1483c6.1617,0,10.637,0,15.1124,0
	l0.1683,0.1676c-2.0909,7.6519-8.0967,12.3497-14.2382,15.8413c-14.9266,8.4862-19.4524,23.8237-26.3756,37.5889
	c-2.0671,4.1099,0.6995,8.8926,5.165,10.1468c2.5157,0.7067,5.2569,0.6112,7.8964,0.877c-1.386,8.2935,0.574,11.1075,8.5908,11.5103
	c18.6014,0.9346,35.5316-4.7036,51.3104-13.99c9.7006-5.709,19.0136-12.0764,28.5006-18.1482
	c6.7542-0.6314,13.5083-1.2628,20.2556-1.891c-2.6945,4.1497-8.5077,6.2862-8.472,12.8413
	c21.3818-0.9767,41.6747-5.6992,62.0946-9.7574c23.6793-4.7061,47.4548-8.9272,71.1886-13.3589
	c-0.3794,10.7123-0.7588,21.4247-1.1373,32.1305c-1.5626,4.3723-3.126,8.7511-4.6893,13.1299
	c-0.4885-6.1368-1.2881-12.2692-1.3738-18.4116c-0.0783-5.6084,0.7535-11.2245,0.8824-16.8441
	c0.036-1.5681-0.9976-3.1608-1.5405-4.7421c-0.6633-0.0722-1.3265-0.1444-1.9899-0.2167
	c-3.6041,12.0944-5.5365,24.7414-13.3112,35.2974c-3.1057,4.2169-2.911,10.7136-5.0547,15.8216
	c-4.3586,10.3857,0.4877,20.8621-1.424,29.8906c5.2004,2.0082,9.3994,3.6298,13.5984,5.2513
	c-0.9348,2.9307-1.8696,5.8613-2.666,8.3582c3.5314,0,6.6868-0.955,8.6392,0.1727c6.8328,3.9465,8.3322,4.0509,14.9017-1.6788
	c1.3017,3.7072,2.3448,7.5363,4.0124,11.0709c0.8549,1.8121,2.8257,3.0977,4.2923,4.6212c1.4109-1.5958,2.8218-3.1915,4.2327-4.7865
	c1.8142,5.5532,3.6285,11.1057,5.7467,17.5881c2.5951-1.2617,4.4923-2.184,6.3895-3.1064
	c8.1188,24.9733,15.8693,50.0165,14.6053,76.7751c-0.0314,0.6637,0.0547,1.3411-0.0452,1.9919
	c-0.623,4.055,1.4617,9.5278-3.5501,11.5012c-4.9227,1.9384-6.0521-4.0536-9.1039-6.1958c-0.2676-0.1878-0.5995-0.284-1.1804-0.5508
	c-5.1781,0.8729-4.2327,5.174-3.856,8.4868c1.309,11.5154,2.9265,22.9985,4.5966,34.4691
	c0.9064,6.2252,2.297,12.3795,3.2205,18.6026c1.6647,11.2185,6.4881,20.8275,14.2961,28.9749
	c3.449,3.5989,6.89,7.2151,10.5077,10.6405c5.1682,4.8935,9.1173,9.9645,9.7617,17.757c0.3382,4.0897,4.0898,8.0367,6.7174,11.7531
	c2.0816,2.9442,5.262,5.166,7.0675,8.2312c1.1608,1.9707,1.8699,5.7805,0.7662,7.2094c-2.9919,3.8733-3.5779,7.3737-2.0933,11.9614
	c1.796,5.5502,4.2452,10.4857,9.0943,13.8755c1.8888,1.3203,4.0773,2.2118,6.1308,3.2979
	c2.9215,8.3893,9.3705,11.6572,17.6845,11.7238c3.6226,0.0291,7.2478-1.0951,10.8792-1.1436
	c4.9186-0.0658,10.282-0.7803,14.6857,0.8547c13.9188,5.1677,26.8868,1.6637,39.8671-2.8597
	c7.465-2.6016,14.7332-5.7628,22.1459-8.5216c4.6633-1.7355,9.4304-3.1919,14.151-4.7729
	c-0.0001,7.8689-0.0001,15.7371-0.0001,24.3892c-5.0455,0-8.9851,0-12.9247,0c-269.2147,0-538.4292,0.0007-807.6437-0.0073
	C215.2698,1036.8938,211.6066,1036.782,207.9435,1036.7223z"/>
<path class="st6" d="M945.0406,191.2468c0.8481,6.6705,4.331,10.7345,12.4502,11.9821c0-4.3091,0.1191-8.0981-0.0203-11.8775
	c-0.6605-17.9101,2.3828-34.7183,11.7113-50.5441c3.3257-5.6421,3.8591-13.293,4.4098-20.1282
	c0.9862-12.2421,5.5743-23.0041,11.5729-33.3885c17.8755-0.0004,35.7509-0.0004,54.5955-0.0004c0,132.251,0,263.0634,0,393.8757
	c-5.5731,0.6545-11.1479,1.2956-16.7191,1.9672c-6.2295,0.7508-12.5137,1.2325-18.6569,2.4309
	c-2.7499,0.5366-7.1958,0.5108-5.8552,5.9177c0.1619,0.6526-1.963,2.5089-3.2488,2.7872
	c-16.1044,3.486-31.8436,9.0455-48.6149,8.8221c8.1074-18.6481,10.1146-38.4247,10.7735-58.437
	c0.3495-10.6167,0.5476-21.2384,0.814-31.8579c0.51,8.2294,0.8645,16.4722,1.5717,24.6847
	c0.7786,9.0403,1.8813,18.0527,2.835,27.004c5.7708,0.9704,6.3589-3.8303,8.9019-5.9869c2.5442,2.352,3.8291,4.9927,3.2274,8.6956
	c-0.4884,3.0065-0.0992,6.1555-0.0992,9.2814c11.193-0.4006,5.4766-13.3431,13.5054-14.8712
	c-0.8429-6.2959-3.005-12.6918-2.2683-18.7344c2.4044-19.7227-6.1451-37.6964-7.887-56.6928
	c-6.8394-9.6771-5.8844-21.4402-8.6372-32.2115c-0.5944-2.3254-1.3779-4.6024-2.0742-6.9018
	c-0.3647,0.1072-0.7293,0.2144-1.094,0.3215c0,7.8304,0,15.6607,0,23.4911c-2.9154,0.5214-4.1448-0.852-4.5889-3.6512
	c-1.3398-8.4478-2.7639-16.8844-4.3262-25.2936c-0.4373-2.3535-1.4663-4.597-2.2239-6.8909
	c-0.6324,0.1066-1.2649,0.2131-1.8973,0.3196c0,7.2004,0,14.4008,0,21.6012c-0.9123-4.8621-2.0165-9.6973-2.705-14.5909
	c-3.8806-27.5789-5.6206-55.0204,5.2974-81.6695c3.6515-8.9127,2.4111-17.6089-1.9279-26.0205
	c-3.6615-7.0981-7.4963-14.1202-10.8206-21.3748c-3.3347-7.2774-6.0864-14.8106-4.9814-23.1053
	C940.3871,190.549,942.7138,190.8979,945.0406,191.2468z"/>
<path class="st3" d="M907.7939,87.8544c-3.9936-0.1057-7.9872-0.3038-11.9808-0.304
	c-263.6323-0.0146-527.2645-0.0132-790.8967-0.0132c-3.9521,0-7.9042,0-12.9216,0c-0.1718,4.1168-0.445,7.6341-0.4465,11.1516
	c-0.0262,60.3254-0.0187,120.6509-0.0187,180.9763c0,219.3047,0.001,438.6094-0.0068,657.9141
	c-0.0002,4.3316-0.1023,8.6631-0.157,12.9948c-4.3766,4.735-8.6869,9.5339-13.1601,14.1758
	c-1.969,2.0433-2.5545,0.3101-2.9126-1.428c1.3638-8.0418,7.8941-14.8725,5.9153-24.1075c-1.9372,0.2269-3.5131,0.4114-5.089,0.596
	c-0.1439-3.9861-0.4136-7.9722-0.4138-11.9583c-0.0197-280.8404-0.0179-561.6808-0.0179-842.5211c0-3.9271,0-7.8542,0-12.414
	c4.1468-0.1969,7.3755-0.4842,10.6043-0.4844c280.8404-0.0206,561.6808-0.0214,842.5212,0.0093
	c3.3053,0.0004,6.6106,0.4268,9.9162,0.6541c-3.7109,4.8976-7.4221,9.7953-11.1333,14.693
	c-2.5427-0.0452-5.0854-0.0904-7.6281-0.1355C915.2885,82.5797,915.2885,82.5797,907.7939,87.8544z"/>
<path class="st6" d="M811.2661,337.9104c0.7142,2.1327,1.5029,4.2438,2.1285,6.4022c1.9358,6.6789,1.9117,6.6859,9.3602,4.4663
	c0.7457,2.0001,1.5014,4.0269,2.2566,6.0573c1.4644,2.8039,0.2889,7.7986,5.9244,7.1327
	c2.4815,15.0887,0.1445,29.8188-3.4874,44.4141c-0.4448,1.7874-1.7466,3.537-3.0674,4.9012
	c-6.6662,6.885-7.4407,11.3013-3.1683,21.6246c2.2933-0.3524,4.7202-0.7253,8.2903-1.274c0,17.434,0.1273,34.3173-0.1449,51.1941
	c-0.0384,2.378-2.028,4.7245-3.4406,7.7943c-1.6793-1.4384-2.7369-2.3443-3.8116-3.2648
	c-2.3581,16.6967-11.4412,27.405-28.1898,30.6188c-14.3134,2.7465-28.6654,5.754-43.1438,7.0811
	c-29.761,2.7277-59.5882,4.0236-88.1558,14.5469c-9.4766,3.4909-20.0776,3.9291-30.1579,5.7568
	c0.5096-2.2691,1.6957-4.6308,1.3852-6.776c-0.8775-6.0646,1.8658-10.5818,6.0144-14.0194
	c11.4338-9.4744,17.4872-22.4371,23.8077-35.2656c6.0245-12.2279,11.8205-24.5692,17.9344-36.7515
	c2.0032-3.9916,4.6878-7.6413,7.9998-12.9534c1.4417,4.1975,2.2219,6.4688,3.0758,8.9549
	c8.6511-8.2744,17.0453-16.2408,25.3296-24.3198c0.8572-0.8359,1.5479-2.3672,1.4879-3.5332
	c-0.3734-7.2556,5.0775-10.2157,9.6942-14.0035c4.041-3.3155,8.6393-6.5264,11.3221-10.8253
	c13.2415-21.2182,31.2888-36.9119,53.2405-48.4491C799.6304,344.3294,805.4296,341.0844,811.2661,337.9104z"/>
<path class="st0" d="M611.298,539.2639c-7.0093,13.2047-14.0045,26.4169-21.0408,39.6071
	c-1.2526,2.3481-2.3365,4.9099-4.0793,6.8514c-7.6395,8.5109-14.1483,17.3741-15.7351,29.3201
	c-0.3912,2.945-4.1278,5.9095-6.9742,7.9706c-6.4647,4.6811-13.254,8.9332-20.0646,13.11c-4.1026,2.516-6.29,5.764-5.8526,10.6497
	c0.9819,10.9692-3.636,19.9751-9.6302,28.6926c-4.3201,6.2827-8.3909,12.8301-11.6979,19.6818
	c-2.026,4.1977-4.6134,6.6008-8.9876,6.5056c-19.3185-0.4198-31.0542,11.5563-41.803,25.22
	c-7.8197,9.9403-15.7041,19.834-23.2811,29.957c-1.3621,1.8199-2.4918,5.0859-1.7806,6.9349
	c1.7792,4.6262-0.1476,7.9988-2.7343,10.9459c-4.1552,4.7342-8.6532,9.224-13.3956,13.3721
	c-6.1507,5.3798-11.0089,11.3803-13.4938,19.3581c-2.7542,8.8422-8.7773,15.5891-15.5045,21.6981
	c-4.9316,4.4784-10.2612,8.5643-14.8325,13.377c-2.8369,2.9866-4.5782,7.0106-6.8308,10.5566
	c-1.402,2.2071-2.509,4.7235-4.3194,6.5284c-8.2492,8.2243-16.4053,16.5846-25.1741,24.2318
	c-6.9023,6.0195-12.567,12.6497-16.7108,20.8466c-2.2086,4.3688-5.1567,8.6639-8.7156,11.9778
	c-5.0099,4.6651-9.424,3.4528-14.0324-3.3446c-16.8716,23.5131-37.6661,43.0193-58.4621,62.5214
	c0.4466-2.8871,0.8938-5.7709,1.3644-8.8062c-9.0667-5.2785-13.0641,4.4207-20.9037,6.1474
	c21.558-24.8958,47.5395-44.1356,64.8551-71.035c2.4738,2.1242,4.351,5.0562,6.4231,5.2012
	c2.9968,0.2097,6.8382-0.7989,9.0442-2.7382c3.1439-2.7637,5.6588-6.5872,7.5084-10.4099
	c4.3008-8.8887,10.3929-16.0319,17.9327-22.3788c7.8814-6.6345,15.2959-13.8888,22.3725-21.3839
	c3.0388-3.2184,4.6142-7.7887,7.0364-11.63c1.568-2.4865,3.1912-5.0468,5.274-7.0769c4.0498-3.9472,8.4326-7.5535,12.6911-11.2855
	c8.8741-7.7772,16.2071-16.4228,20.1171-28.0188c1.7072-5.0631,6.0707-9.3926,9.7726-13.5729
	c3.2899-3.715,7.4149-6.6772,11.0242-10.1256c5.782-5.5239,10.2227-11.572,6.4336-19.3893
	c8.516-11.1619,16.403-21.8597,24.6991-32.2302c4.5584-5.6982,9.5214-11.1451,14.814-16.1655
	c6.6627-6.3201,14.3387-10.6365,24.1231-10.2145c6.8411,0.2952,11.6223-2.3079,14.3132-9.6131
	c2.2491-6.106,6.5479-11.533,10.3501-16.9731c5.8491-8.3687,10.3842-17.0642,9.6538-27.6855
	c-0.4071-5.9215,2.1781-9.9081,7.4269-12.8641c6.3677-3.5862,12.2623-8.0018,18.499-11.8351c4.8776-2.998,7.869-7.1016,8.5258-12.78
	c0.8802-7.6105,4.5587-13.4814,9.7382-19.1222c4.4162-4.8096,7.5616-10.8876,10.7669-16.6823
	c4.1845-7.5649,7.555-15.5882,11.8781-23.066c3.3967-5.8755,7.7068-11.2229,11.6112-16.8049
	c0.7282,0.262,1.4565,0.524,2.1847,0.7861c0,3.4695,0.0784,6.9412-0.0205,10.4078
	C605.5596,538.5126,607.5978,539.8229,611.298,539.2639z"/>
<path class="st3" d="M1039.76,481.1659c0-130.8124,0-261.6248,0-393.8757c-18.8447,0-36.72,0-54.5955,0.0004
	c1.6593-4.6663,3.3186-9.333,5.1057-14.3591c21.5131,0,42.7238,0,64.4422,0c0.2682,2.4501,0.7271,4.6868,0.7272,6.9235
	c0.0043,133.6095-0.0292,267.2191-0.0593,400.8285C1050.1735,480.8442,1044.9667,481.0051,1039.76,481.1659z"/>
<path class="st0" d="M811.2661,337.9104c-5.8364,3.1741-11.6356,6.419-17.5159,9.5096
	c-21.9517,11.5372-39.999,27.2309-53.2405,48.4491c-2.6828,4.2989-7.2811,7.5098-11.3221,10.8253
	c-4.6167,3.7878-10.0676,6.7479-9.6942,14.0035c0.06,1.166-0.6307,2.6973-1.4879,3.5332
	c-8.2843,8.079-16.6785,16.0454-25.3296,24.3198c-0.8539-2.4861-1.6341-4.7574-3.0758-8.9549
	c-3.312,5.3121-5.9966,8.9617-7.9998,12.9534c-6.1139,12.1823-11.9099,24.5236-17.9344,36.7515
	c-6.3204,12.8285-12.3738,25.7913-23.8077,35.2656c-4.1486,3.4376-6.8919,7.9548-6.0144,14.0194
	c0.3105,2.1452-0.8756,4.5069-1.3852,6.7759c-0.4498,0.0999-0.701,0.3795-0.7618,0.8469c-0.7394,0.9628-1.4775,1.9236-2.2157,2.8843
	c0,0-0.016-0.311-0.0149-0.3108c-3.0158,0.7335-6.0328,1.4668-9.2213,2.2418c-4.5003-4.905-1.4562-10.6205-2.2283-15.7616
	c1.2184-2.9627,3.5241-5.9628,3.4214-8.878c-0.1981-5.624,1.9258-9.8668,5.8467-13.1277
	c11.3837-9.4673,17.6469-22.3221,23.9343-35.1791c5.5485-11.346,10.7754-22.8509,16.428-34.1436
	c2.5126-5.0197,5.7228-9.6903,9.301-15.6619c1.4387,3.4087,2.396,5.6769,3.6252,8.5892c1.6824-1.4624,3.3797-2.7591,4.8673-4.2633
	c5.1436-5.201,10.0109-10.6951,15.3854-15.6407c3.47-3.1931,6.2786-5.9536,7.1816-11.213c0.6122-3.5663,4.4337-7.387,7.8155-9.5019
	c6.7265-4.2067,11.4073-9.7961,15.575-16.3777c10.1489-16.0274,23.9086-28.5117,40.084-38.2471
	c12.2106-7.3492,24.71-14.2188,38.3025-22.0013C810.2876,325.8281,810.7768,331.8692,811.2661,337.9104z"/>
<path class="st3" d="M1055.4957,575.0708c-0.4526,1.1678-0.5603,2.8124-1.412,3.4286c-7.4677,5.4035-7.4641,5.9664,1.0398,10.2537
	c0,104.6384,0,209.4224,0,314.2064c-0.4673,0.2949-0.9344,0.5898-1.4017,0.8848c-4.8016-6.4386-9.6033-12.8771-14.4042-19.3191
	c0.1223-1.6622,0.3505-3.3208,0.3503-4.9795c-0.0116-99.9498-0.0416-199.8997-0.0701-299.8495
	c2.3616-1.459,4.7231-2.918,7.0847-4.377C1049.6204,575.2365,1052.558,575.1536,1055.4957,575.0708z"/>
<path class="st0" d="M958.2527,412.7961c-0.2664,10.6194-0.4645,21.2412-0.814,31.8579
	c-0.6589,20.0123-2.6661,39.7889-10.7735,58.437c-11.1745,3.9052-22.389,1.8046-33.5391-0.0072
	c-1.4027-0.228-3.4434-2.4556-3.441-3.7535c0.0024-1.321,1.9698-3.4529,3.4188-3.7993c3.8604-0.9229,7.915-1.5272,11.8736-1.4363
	c6.8941,0.1581,10.623-3.3375,12.0214-9.5468c2.4066-10.6862,5.3501-21.3478,6.5674-32.1883
	c4.3447-38.6916,1.0759-77.1384-4.5212-115.5157c-2.0627-14.1438-2.6541-28.5012-3.952-42.7579
	c-1.3372-14.6871,2.653-28.5352,7.6797-41.9216c4.3943-11.7024,2.7924-22.0371-3.0569-32.4987
	c-3.7303-6.6716-7.0686-13.5798-10.2625-20.5291c-3.4005-7.3988-4.6906-15.2755-3.7775-23.3947
	c0.2011-1.7877,1.2495-3.4801,3.8716-5.4059c0.9505,3.5217,1.5339,7.2005,2.9551,10.5207c1.4157,3.3073,3.6722,6.2547,5.5589,9.3517
	c-1.1063,8.2865,1.6455,15.8197,4.9802,23.0971c3.3242,7.2546,7.1591,14.2767,10.8206,21.3748
	c4.339,8.4117,5.5794,17.1079,1.9279,26.0205c-10.918,26.6491-9.1779,54.0906-5.2974,81.6695
	c0.6885,4.8936,1.7927,9.7287,2.7051,14.5775c-0.1919,0.4854-0.0704,0.8983,0.3645,1.2255
	c0.6306,4.7116,1.2612,9.4232,1.8917,14.1347C956.387,385.804,957.3199,399.3001,958.2527,412.7961z"/>
<path class="st0" d="M1046.6826,575.3193c-2.3616,1.459-4.7231,2.918-7.0847,4.3769c-1.5713,0.48-3.2147,0.7991-4.7031,1.4647
	c-17.626,7.8826-35.0856,15.9838-55.0429,16.5237c-4.6036,0.1245-9.8762,2.6061-13.546,5.5936
	c-17.9854,14.6414-19.8903,22.577-11.9459,44.3212c0.6849,1.8746,1.5303,3.7007,2.0795,5.613
	c2.1956,7.6449,4.3441,15.3043,6.382,22.9922c0.2075,0.7825-0.4454,1.793-0.8411,3.2042c-2.8922,0-5.6821,0-8.5026,0
	c-4.635,10.2729-4.9105,20.5093-2.8418,30.7587c1.9048,9.4376,4.8052,18.6704,6.875,28.0797
	c1.7651,8.0248,5.5683,14.8055,10.5862,21.2021c4.0823,5.2039,8.7789,10.4603,10.9756,16.5031
	c5.3213,14.6371,9.4532,29.7152,13.7335,44.7101c0.4788,1.6769-1.174,3.962-1.8384,5.9651l-0.3167,0.0255
	c-3.053-4.5173-6.106-9.0346-9.1589-13.5519c-2.5817-10.2717-4.9645-20.5985-7.7969-30.8005
	c-3.295-11.8682-8.554-22.932-16.47-32.3799c-6.5975-7.8743-11.0812-16.5153-13.101-26.5283
	c-2.2331-11.0705-4.9424-22.0647-6.6563-33.2133c-1.1721-7.6248,0.1993-15.2366,3.7865-22.41c2.8536,0,5.5535,0,9.841,0
	c-1.6098-6.9365-2.6872-13.046-4.4797-18.938c-2.3219-7.6322-5.4314-15.0231-7.8057-22.6414
	c-3.0192-9.6878-0.694-17.8419,6.1232-25.755c8.653-10.0441,18.8104-14.9595,31.983-15.7113
	c7.4789-0.4268,15.0581-2.6573,22.1628-5.2512c10.9283-3.99,21.3793-9.2738,32.2509-13.4392
	c5.1185-1.9611,10.7445-2.5978,16.1404-3.8347c0.3164,0.8397,0.6327,1.6794,0.949,2.519
	c-3.8051,1.7644-7.6101,3.5289-11.3838,5.2787C1038.4503,575.3605,1038.4503,575.3605,1046.6826,575.3193z"/>
<path class="st0" d="M823.6443,634.9044c-23.7338,4.4316-47.5093,8.6528-71.1886,13.3589
	c-20.4199,4.0583-40.7128,8.7807-62.0946,9.7574c-0.0356-6.5551,5.7775-8.6916,8.472-12.8412
	c22.0205-4.6574,44.0087-9.4376,66.0576-13.9183c12.9773-2.6371,26.0234-4.9705,39.0945-7.0963
	c5.8069-0.9443,11.7521-1.0381,18.7028-1.605C823.0515,627.2509,823.3479,631.0777,823.6443,634.9044z"/>
<path class="st0" d="M678.5776,647.0704c-9.487,6.0718-18.8,12.4391-28.5006,18.1482c-15.7789,9.2864-32.709,14.9246-51.3104,13.99
	c-8.0168-0.4028-9.9767-3.2169-8.5908-11.5103c20.3458,0.0134,37.9917-7.7664,54.8582-18.3767
	c12.6097-7.9324,25.5775-15.3234,38.6232-22.5253c9.4716-5.2288,13.702-5.722,24.6089-4.233
	c-5.1859,2.7363-8.9871,4.3897-12.4057,6.6276c-5.2292,3.4229-10.4316,6.9757-15.1362,11.0598
	C679.1908,641.5818,679.2479,644.7451,678.5776,647.0704z"/>
<path class="st0" d="M1027.671,916.2723c-5.8275-2.9728-9.4387-8.0226-12.4383-13.5513
	c-9.6355-17.76-19.4366-35.4369-28.6886-53.3959c-6.3569-12.3394-12.0811-25.0175-17.6943-37.7182
	c-1.3795-3.1213-1.2209-6.9222-0.3936-10.917c3.369,4.6216,6.7379,9.2433,10.1057,13.8639
	c1.1361,3.8073,2.0095,7.7195,3.4608,11.4042c4.0847,10.3701,7.3876,21.1798,15.3788,29.5256l0.0713-0.2217
	c0.532,0.8038,1.064,1.6077,1.5958,2.4115l-0.225,0.048c1.6569,3.4476,3.3138,6.8953,4.9708,10.3429
	c1.6288,3.0415,3.2576,6.0831,4.8864,9.1246c1.0051,1.3325,2.0104,2.6651,3.0155,3.9977l-0.0313-0.1025
	c1.3473,2.9868,2.6868,5.9771,4.0433,8.9596C1019.7056,898.7881,1023.6896,907.5296,1027.671,916.2723z"/>
<path class="st0" d="M817.8177,680.1649c1.5634-4.3788,3.1267-8.7576,4.6893-13.1299c1.0379,18.8541,1.9682,37.7087,3.2202,56.5421
	c0.2138,3.2169,1.8029,6.3423,2.7544,9.4982c-6.5717,5.7178-8.0711,5.6134-14.9039,1.6669
	c-1.9524-1.1277-5.1078-0.1727-8.6392-0.1727c0.7964-2.4968,1.7312-5.4275,2.6583-8.3571c2.6804-0.8842,5.3683-1.7693,8.3785-2.7606
	c-0.6039-2.2737-0.877-3.5187-1.2673-4.7257c-0.8151-2.5205-1.4959-5.1101-2.5861-7.5104
	c-2.0247-4.4573,4.0516-1.7229,3.8487-4.5242c-0.1429-1.9738-0.2896-3.9755-0.1228-5.9383
	C816.4313,693.8842,817.1501,687.0267,817.8177,680.1649z"/>
<path class="st0" d="M186.5958,935.99c1.0165,0.1389,2.5382,0.7676,2.9613,0.3312c1.7547-1.81,3.1777-3.9417,5.0334-6.3607
	c1.4421,1.6755,2.4808,2.8822,3.5202,4.0963c-8.6127,13.7744-17.1069,27.8605-29.948,38.0244
	c-7.5876,6.0056-15.9288,11.8851-26.2869,12.9025c5.5091-5.6793,11.122-11.2628,16.4802-17.0808
	c2.6469-2.8739,4.8238-6.1807,7.2021-9.2786C172.5633,951.0881,179.5796,943.5391,186.5958,935.99z"/>
<path class="st6" d="M1027.671,916.2723c-3.9814-8.7427-7.9654-17.4842-11.9426-26.2288c-1.3566-2.9825-2.696-5.9728-4.0437-8.9594
	c7.1741,1.1552,9.2347,7.1992,12.0481,13.4444c3.7003-2.5928,7.1269-2.9733,9.4453,1.3511
	c-0.1907,6.0344,1.3567,8.4141,6.3395,9.7494c0.2896,7.6569,0.579,15.314,0.8683,22.9711c-2.2076-1.617-4.6371-3.0089-6.5654-4.9094
	C1031.5443,921.4476,1029.7017,918.7646,1027.671,916.2723z"/>
<path class="st3" d="M91.187,967.0719c0.2491,3.4446,0.4982,6.8893,0.7472,10.332c-0.6052,3.4781-1.38,6.9395-1.7662,10.4437
	c-0.3622,3.2867-2.7199,6.9103,1.131,9.7401c0.1898,4.6715,0.3795,9.343,0.5693,14.0145
	c-5.265,2.8907-10.5299,5.7814-15.7955,8.6744c-0.0547-0.3221-0.2227-0.6765-0.1464-0.9664
	c2.5595-9.7242,5.1696-19.4354,7.7058-29.1656c0.8195-3.1437,1.195-6.4235,2.2336-9.4849
	C87.4269,976.0582,89.3931,971.5944,91.187,967.0719z"/>
<path class="st0" d="M116.0324,983.9862c4.7389,2.5731,8.8699,6.4498,14.6287,6.8325c-9.6418,5.3616-19.2778,10.7141-28.9129,16.067
	c0.8286-5.4487,1.6561-10.8979,2.4836-16.3472C108.1653,988.3544,112.0989,986.1703,116.0324,983.9862z"/>
<path class="st0" d="M452.6695,622.4107c-1.4251-4.8597-2.8503-9.7194-4.2778-14.5721c1.7762-3.1372,3.5548-6.2816,5.3334-9.4259
	c5.777-0.5801,11.5539-1.1601,17.5912-1.7662c0,2.6779,0,4.5549-0.0002,6.4323c-0.0001,0.0004,0.2317-0.0402,0.2317-0.0402
	c-0.6573,0.7139-1.3148,1.4274-1.9722,2.1409l0.0733-0.0793c-0.7344,0.8843-1.4686,1.7685-2.2029,2.6528
	C462.5205,612.6389,457.595,617.5248,452.6695,622.4107z"/>
<path class="st3" d="M1040.3859,928.6002c-0.2893-7.657-0.5787-15.3141-0.8683-22.9711c5.0165,1.0712,10.0328,2.1423,16.0345,3.4238
	c0,4.2745,0,9.1049-0.0001,13.9351C1050.4966,924.8587,1045.4413,926.7294,1040.3859,928.6002z"/>
<path class="st6" d="M997.4018,855.4836c-7.9915-8.3458-11.2943-19.1555-15.379-29.5256
	c-1.4513-3.6846-2.3247-7.5969-3.4608-11.4042c0.9777-0.4834,1.9541-0.9678,2.9304-1.4525c3.053,4.517,6.106,9.0343,9.152,13.5502
	c0.3455,0.8599,0.698,1.7211,1.0504,2.5824l-0.084-0.1198c1.6542,4.521,2.8492,9.2864,5.0891,13.4958
	C999.041,847.0096,999.5255,851.0596,997.4018,855.4836z"/>
<path class="st0" d="M853.1529,758.4506c-1.8972,0.9224-3.7944,1.8447-6.3895,3.1064c-2.1182-6.4824-3.9325-12.0349-5.7467-17.5881
	c-0.3809-2.5663-0.7619-5.132-1.1413-7.6864c5.1299-2.8073,7.3157,0.3674,8.4687,3.9167
	C850.2847,746.1733,851.5839,752.3558,853.1529,758.4506z"/>
<path class="st6" d="M104.2318,990.5386c-0.8275,5.4492-1.655,10.8984-2.4836,16.3472c-3.294,1.5697-6.587,3.1399-9.8799,4.7134
	c-0.1898-4.6683-0.3795-9.3398-0.5708-14.0137C95.6079,995.2349,99.9198,992.8867,104.2318,990.5386z"/>
<path class="st6" d="M919.968,87.6533c2.5427,0.0451,5.0853,0.0903,7.6281,0.1355c-0.1962,2.9195-0.3925,5.8388-0.6205,9.2308
	C920.4816,96.3672,921.345,91.1851,919.968,87.6533z"/>
<path class="st0" d="M830.9357,361.9688c-5.6355,0.6659-4.46-4.3289-5.9244-7.1327c0.8234-1.2094,1.6462-2.4152,3.6846-5.4027
	C829.6682,354.875,830.3019,358.4219,830.9357,361.9688z"/>
<path class="st5" d="M629.481,549.093c0.7382-0.9607,1.4763-1.9214,2.2157-2.8843C630.959,547.1688,630.22,548.1309,629.481,549.093
	z"/>
<path class="st5" d="M617.5599,603.0767c0.3398-0.2901,0.6796-0.5802,1.0194-0.8704c-0.2845,0.3453-0.5689,0.6907-0.8522,1.037
	C617.7282,603.2443,617.5599,603.0767,617.5599,603.0767z"/>
<path class="st5" d="M469.5757,605.1796c0.6574-0.7135,1.3148-1.4271,1.9722-2.1407
	C470.8904,603.7523,470.233,604.4659,469.5757,605.1796z"/>
<path class="st5" d="M467.446,607.753c0.7343-0.8843,1.4686-1.7685,2.2029-2.6528
	C468.9147,605.9845,468.1804,606.8688,467.446,607.753z"/>
<path class="st7" d="M76.1195,939.8102c1.5759-0.1846,3.1517-0.3691,5.089-0.596c1.9789,9.235-4.5515,16.0657-5.9153,24.1075
	c-3.4055,12.2907-6.8097,24.5843-10.4432,37.7059c-0.8303-0.199-2.7757-0.6653-5.3456-1.2813
	c0.654,3.4198,1.2361,6.4636,1.8135,9.4829c-10.3005,3.4222-16.7297,1.8984-22.6911-5.3748
	c-3.4446,0.2183-6.9492,0.4404-11.7212,0.7428c2.0799-2.7794,3.5189-4.5099,4.731-6.387c0.8682-1.3445,2.4359-3.4995,1.9797-4.2444
	c-5.3281-8.6992,3.469-12.6163,6.5786-17.8003c3.5565-5.9289,9.6766-10.3199,15.0059-15.7057
	c0.7079,0.5743,1.9329,1.5682,3.7671,3.0562C64.693,955.6031,70.4062,947.7067,76.1195,939.8102z"/>
<path class="st6" d="M990.968,826.6276c0.6644-2.0031,2.3171-4.2882,1.8384-5.9651c-4.2803-14.9949-8.4122-30.073-13.7335-44.7101
	c-2.1968-6.0428-6.8933-11.2992-10.9756-16.5031c-5.0179-6.3966-8.821-13.1773-10.5862-21.2021
	c-2.0698-9.4093-4.9702-18.6421-6.875-28.0797c-2.0687-10.2494-1.7932-20.4857,2.8418-30.7587c2.8205,0,5.6104,0,8.5026,0
	c0.3957-1.4111,1.0486-2.4217,0.8411-3.2042c-2.0378-7.6879-4.1864-15.3473-6.382-22.9922
	c-0.5492-1.9123-1.3947-3.7383-2.0795-5.613c-7.9444-21.7443-6.0395-29.6799,11.9459-44.3212
	c3.6697-2.9875,8.9423-5.4691,13.546-5.5936c19.9573-0.54,37.4169-8.6412,55.0429-16.5237
	c1.4884-0.6656,3.1318-0.9847,4.7031-1.4648c0.0284,99.95,0.0585,199.8998,0.0701,299.8496
	c0.0001,1.6587-0.228,3.3173-0.3503,4.9795c-8.1033-10.3201-16.0823-20.744-24.3611-30.924
	c-4.0421-4.9703-6.328-11.689-13.218-13.9927c-3.3751-3.4998-6.7513-6.9971-10.1277-10.4943l0.084,0.1198
	C991.4525,828.3652,991.2103,827.4963,990.968,826.6276z"/>
<path class="st3" d="M207.9435,1036.7223c3.6631,0.0597,7.3263,0.1715,10.9894,0.1716
	c269.2146,0.0081,538.4291,0.0073,807.6437,0.0073c3.9396,0,7.8792,0,12.9247,0c0-8.6521,0-16.5203,0.0001-24.3892
	c4.7875-3.5264,9.5748-7.0519,15.2168-11.2068c0,17.108,0,33.4764,0,49.9498c-8.241,2.5618-780.8917,3.8887-861.2528,1.355
	C197.0368,1045.769,203.0838,1041.7537,207.9435,1036.7223z"/>
<path class="st7" d="M991.6108,829.1142c3.3763,3.4973,6.7526,6.9946,10.1277,10.4943c7.5386,10.468,15.0059,20.9866,22.642,31.3813
	c5.6399,7.6773,11.4995,15.1931,18.1771,23.987c-3.7516,0.3685-6.5596,0.6442-9.3735,0.9115
	c-2.3243-4.3329-5.751-3.9525-9.4512-1.3597c-2.8134-6.2452-4.874-12.2892-12.0481-13.4444
	c0.0004-0.0002,0.0316,0.1023,0.0316,0.1023c-1.0051-1.3326-2.0104-2.6652-3.0155-3.9977
	c-1.6288-3.0415-3.2576-6.0831-4.8865-9.1281c-0.4127-4.0471,1.8494-9.3771-4.9707-10.3394c0,0,0.225-0.048,0.2305-0.0511
	c-0.5302-0.8049-1.0657-1.6066-1.6013-2.4084l-0.0713,0.2217c2.1239-4.4241,1.6394-8.474-0.7017-12.8736
	C994.46,838.4006,993.265,833.6352,991.6108,829.1142z"/>
<path class="st0" d="M443.0781,615.2378c-6.6506,9.4588-13.351,18.8832-19.9269,28.3936c-2.5615,3.7045-6.644,6.6972-5.7231,12.1864
	c0.1676,0.9991-1.0827,2.3411-1.8701,3.3795c-11.8174,15.5848-23.2505,31.4876-35.662,46.5856
	c-7.673,9.3337-16.8462,17.434-26.1317,26.8879c-0.255-0.1674-1.7471-1.1472-3.8246-2.5114
	c-4.9392,3.7096-9.6931,9.832-18.0939,5.9014c1.5906-7.9641,10.4004-9.1833,13.3033-15.3353
	c2.8936-8.0894,9.9403-12.7944,15.3337-18.8826c8.928-10.0782,17.5485-20.429,26.2986-30.6649
	c0.981-0.6596,1.962-1.3192,2.9431-1.9788l-0.0386,0.0536c6.5703-6.4577,13.2984-12.7638,19.6758-19.4066
	c11.0443-11.5039,21.8714-23.2163,32.7864-34.8415c-0.0032-0.0003,0.4274,0.2603,0.4274,0.2603L443.0781,615.2378z"/>
<path class="st7" d="M386.7815,671.1781c-8.7501,10.2359-17.3706,20.5866-26.2986,30.6649
	c-5.3934,6.0883-12.4402,10.7932-15.3337,18.8826c-2.5076-0.3749-5.0286-0.7386-8.396-1.2243
	c-4.446,3.1769-9.229,8.7721-16.4934,4.3853c-0.0464-0.9794-0.3706-1.881-0.0646-2.2302
	c8.5832-9.7935,17.0906-19.6591,25.8938-29.2527c22.6367-24.6691,45.3273-49.2903,68.1959-73.744
	c4.6342-4.9554,10.1455-9.0906,15.2524-13.6039l0.1826,0.1808c-6.8427,9.6838-13.6898,19.3646-20.5258,29.0532
	c-2.1956,3.1118-4.7541,5.564-4.8777,10.2628c-0.0849,3.2286-4.297,6.3286-6.6129,9.5233
	c-3.3895,4.676-8.9911,8.1938-8.0177,15.1771c0-0.0001,0.0386-0.0536,0.0386-0.0536
	C388.7435,669.8589,387.7625,670.5186,386.7815,671.1781z"/>
<path class="st7" d="M186.5958,935.99c-7.0163,7.5491-14.0326,15.0981-21.0376,22.6341c-3.5892,1.3718-7.3048,2.5178-10.7673,4.1884
	c-8.6749,4.1855-17.2352,8.6088-27.8746,13.959c8.6708-12.4782,19.6137-20.452,28.0118-30.6345
	c8.1045-9.8265,17.8648-18.2874,26.9696-27.4203c4.7631,2.9935,3.4447,6.6757,3.4123,10.173
	C185.2882,931.2523,186.1366,933.6229,186.5958,935.99z"/>
<path class="st7" d="M104.2318,990.5386c-4.3119,2.3481-8.6238,4.6963-12.9342,7.0469c-3.8494-2.8275-1.4916-6.451-1.1295-9.7378
	c0.3862-3.5043,1.161-6.9656,1.7662-10.4437c4.1041-1.3741,8.2835-4.016,12.2913-3.7771c4.173,0.2488,8.1832,3.2715,12.2531,5.1066
	c0.2667,0.1202,0.436,0.4564,1.0285,1.1071c-0.4225,1.2118-0.9325,2.6742-1.4586,4.1412
	C112.0989,986.1703,108.1653,988.3544,104.2318,990.5386z"/>
<path class="st7" d="M443.0781,615.2378l-0.5026,0.0272c0,0-0.4306-0.2606-0.4274-0.2603
	c-1.4533-5.4303-3.4022-10.785-4.2535-16.3088c-1.3523-8.775,3.3737-13.1937,12.2006-12.537
	c2.763,0.2055,5.5869-0.4091,9.8971-0.778c-2.4413,5.0784-4.351,9.051-6.264,13.0276c-1.7819,3.1485-3.5604,6.2928-5.3366,9.4301
	C446.6221,610.3003,444.8501,612.769,443.0781,615.2378z"/>
<path class="st7" d="M429.5372,605.0558c0.339-0.3034,0.6779-0.6069,1.0169-0.9103c-0.2787,0.3632-0.5574,0.7264-0.8351,1.0903
	C429.7198,605.2366,429.5372,605.0558,429.5372,605.0558z"/>
<path class="st7" d="M817.8177,680.1649c-0.6675,6.8618-1.3864,13.7193-1.97,20.5883c-0.1667,1.9628-0.0201,3.9645,0.1228,5.9383
	c0.2029,2.8013-5.8734,0.0669-3.8487,4.5242c1.0902,2.4003,1.7711,4.9899,2.5861,7.5104c0.3903,1.207,0.6634,2.452,1.2673,4.7257
	c-3.0102,0.9913-5.6982,1.8764-8.3785,2.7606c-4.1913-1.6226-8.3903-3.2441-13.5907-5.2523
	c1.9117-9.0285-2.9346-19.5048,1.424-29.8906c2.1437-5.108,1.949-11.6047,5.0547-15.8216
	c7.7747-10.556,9.7071-23.203,13.3112-35.2974c0.6633,0.0723,1.3266,0.1445,1.9899,0.2167c0.543,1.5814,1.5765,3.1741,1.5405,4.7421
	c-0.129,5.6196-0.9608,11.2357-0.8824,16.8441C816.5295,667.8957,817.3292,674.0281,817.8177,680.1649z"/>
<path class="st7" d="M958.2527,412.7961c-0.9329-13.4961-1.8657-26.9921-2.7991-40.4908c-0.6307-4.7125-1.261-9.4222-1.8912-14.132
	c-0.4349-0.3271-0.5564-0.74-0.3645-1.2255c-0.0001-7.1871-0.0001-14.3875-0.0001-21.5879
	c0.6324-0.1065,1.2649-0.2131,1.8973-0.3196c0.7576,2.2939,1.7867,4.5375,2.2239,6.8909
	c1.5623,8.4092,2.9864,16.8457,4.3262,25.2936c0.444,2.7992,1.6735,4.1725,4.5883,3.6485
	c-0.0005-0.0026-0.3174,0.0881-0.3174,0.0881c0.4597,2.2129,0.9193,4.4258,1.379,6.6387
	c1.7847,19.6356,7.6725,38.689,6.8257,58.8197c-0.3179,7.5553,1.2848,15.0088-2.5596,22.0781
	c-2.543,2.1567-3.131,6.9573-8.9019,5.9869c-0.9537-8.9513-2.0565-17.9637-2.835-27.004
	C959.1172,429.2684,958.7628,421.0256,958.2527,412.7961z"/>
<path class="st0" d="M971.5613,458.4979c3.8444-7.0694,2.2417-14.5228,2.5596-22.0781c0.8468-20.1306-5.0411-39.1841-6.826-58.8242
	c-0.4598-2.2144-0.9193-4.4243-1.3787-6.6342c0,0,0.3169-0.0908,0.3174-0.0881c0.0006-7.8277,0.0006-15.6581,0.0006-23.4884
	c0.3647-0.1072,0.7293-0.2144,1.094-0.3215c0.6964,2.2993,1.4799,4.5764,2.0742,6.9018
	c2.7528,10.7713,1.7979,22.5343,8.6372,32.2115c1.7418,18.9964,10.2914,36.97,7.887,56.6928
	c-0.7367,6.0425,1.4254,12.4385,2.2683,18.7344c-8.0288,1.5281-2.3124,14.4706-13.5054,14.8712
	c0-3.1259-0.3892-6.2749,0.0992-9.2814C975.3904,463.4906,974.1055,460.8499,971.5613,458.4979z"/>
<path class="st6" d="M953.5624,358.1732c0.6302,4.7098,1.2605,9.4196,1.8912,14.132
	C954.8236,367.5964,954.1931,362.8848,953.5624,358.1732z"/>
<path class="st7" d="M990.968,826.6276c0.2423,0.8688,0.4845,1.7376,0.7268,2.6064c-0.3524-0.8613-0.705-1.7225-1.0504-2.5824
	C990.6513,826.653,990.968,826.6276,990.968,826.6276z"/>
<path class="st6" d="M998.8437,857.7214c6.8201,0.9623,4.558,6.2924,4.9707,10.3394
	C1002.1575,864.6166,1000.5005,861.169,998.8437,857.7214z"/>
<path class="st6" d="M1008.7009,877.1888c1.0051,1.3325,2.0104,2.665,3.0155,3.9976
	C1010.7112,879.8539,1009.706,878.5214,1008.7009,877.1888z"/>
<path class="st6" d="M997.4728,855.2619c0.5356,0.8018,1.0712,1.6035,1.6013,2.4084
	C998.5368,856.8696,998.0048,856.0657,997.4728,855.2619z"/>
<path class="st5" d="M386.7815,671.1781c0.981-0.6595,1.9621-1.3192,2.9431-1.9788
	C388.7435,669.8589,387.7625,670.5185,386.7815,671.1781z"/>
<path class="st6" d="M965.9161,370.9614c0.4594,2.2099,0.9189,4.4198,1.3787,6.6342
	C966.8354,375.3872,966.3758,373.1743,965.9161,370.9614z"/>
</svg>
