<svg xmlns="http://www.w3.org/2000/svg" viewBox="0 0 40 28.571">
  <defs>
    <style>
      .cls-1 {
        fill: #56b46f;
      }

      .cls-2 {
        fill: #74be86;
      }

      .cls-3 {
        fill: #4d8157;
      }

      .cls-4 {
        fill: #eaead7;
      }

      .cls-5 {
        fill: #83c38e;
      }
    </style>
  </defs>
  <g id="notes" transform="translate(0 -8)">
    <rect id="XMLID_115_" class="cls-1" width="40" height="22.857" transform="translate(0 13.714)"/>
    <path id="XMLID_114_" class="cls-2" d="M37.714,14.857H2V12Z" transform="translate(-0.571 -1.143)"/>
    <path id="XMLID_79_" class="cls-3" d="M33.571,28.286A9.286,9.286,0,1,1,24.286,19a9.285,9.285,0,0,1,9.286,9.286" transform="translate(-4.286 -3.143)"/>
    <path id="XMLID_112_" class="cls-4" d="M16.5,36.714A9.268,9.268,0,0,1,16.5,21H9.268c.011.118.018.236.018.357a3.929,3.929,0,0,1-3.929,3.929c-.121,0-.239-.007-.357-.018v7.179c.118-.011.236-.018.357-.018a3.929,3.929,0,0,1,3.929,3.929c0,.121-.007.239-.018.357Z" transform="translate(-1.429 -3.714)"/>
    <path id="XMLID_111_" class="cls-4" d="M46.045,25.286a3.928,3.928,0,0,1-3.929-3.929c0-.121.007-.239.018-.357H34.906a9.268,9.268,0,0,1,0,15.714h7.228c-.011-.118-.018-.236-.018-.357a3.928,3.928,0,0,1,3.929-3.929c.121,0,.239.007.357.018V25.268c-.118.011-.236.018-.357.018" transform="translate(-9.973 -3.714)"/>
    <path id="XMLID_110_" class="cls-4" d="M4.786,22.571a1.786,1.786,0,1,1,1.786-1.786,1.787,1.787,0,0,1-1.786,1.786" transform="translate(-0.857 -3.143)"/>
    <path id="XMLID_109_" class="cls-4" d="M49.786,22.571a1.786,1.786,0,1,1,1.786-1.786,1.787,1.787,0,0,1-1.786,1.786" transform="translate(-13.714 -3.143)"/>
    <path id="XMLID_108_" class="cls-4" d="M4.786,43.571a1.786,1.786,0,1,1,1.786-1.786,1.787,1.787,0,0,1-1.786,1.786" transform="translate(-0.857 -9.143)"/>
    <path id="XMLID_107_" class="cls-4" d="M49.786,43.571a1.786,1.786,0,1,1,1.786-1.786,1.787,1.787,0,0,1-1.786,1.786" transform="translate(-13.714 -9.143)"/>
    <path id="XMLID_106_" class="cls-5" d="M5,8v3.029l33.571,2.686h2.143Z" transform="translate(-1.429)"/>
    <path id="XMLID_105_" class="cls-4" d="M29.9,32.06a1.243,1.243,0,0,0,.88-1.183v-.621a1.242,1.242,0,0,0-.67-1.1c-.274-2.339-1.82-3.285-4.305-3.285-.117,0-.233,0-.346.014a3.734,3.734,0,0,1-2.4-.565,3.121,3.121,0,0,1-.711-.626.124.124,0,0,0-.222.091c.025.217.061.471.117.749.2,1.032.082.881-.317,1.856a6.447,6.447,0,0,0-.429,1.769,1.244,1.244,0,0,0-.666,1.094v.621a1.244,1.244,0,0,0,.88,1.183,3.935,3.935,0,0,0,2.229,2.783v.712a.478.478,0,0,1-.266.429l-2.4,1.183a2.006,2.006,0,0,0-.532.439,9.267,9.267,0,0,0,10.195.1,2.035,2.035,0,0,0-.661-.526l-2.342-1.2a.477.477,0,0,1-.261-.425v-.717A3.935,3.935,0,0,0,29.9,32.06" transform="translate(-5.927 -4.757)"/>
  </g>
</svg>
