<svg xmlns="http://www.w3.org/2000/svg" viewBox="0 0 50 40">
  <defs>
    <style>
      .cls-1 {
        fill: #38454f;
      }

      .cls-2 {
        fill: #61b872;
      }

      .cls-3 {
        fill: #48a0dc;
      }

      .cls-4 {
        fill: #ebba16;
      }

      .cls-5 {
        fill: #bf4d90;
      }

      .cls-6 {
        fill: #dd352e;
      }

      .cls-7 {
        fill: #a4e869;
      }

      .cls-8 {
        fill: #50508a;
      }

      .cls-9 {
        fill: #be7c6d;
      }

      .cls-10 {
        fill: #afb6bb;
      }
    </style>
  </defs>
  <g id="smart-tv" transform="translate(0 -5.5)">
    <rect id="Rectangle_25" data-name="Rectangle 25" class="cls-1" width="50" height="32.34" transform="translate(0 5.5)"/>
    <path id="Path_85" data-name="Path 85" class="cls-2" d="M13.416,20.755H10.895A.889.889,0,0,1,10,19.872V17.383a.889.889,0,0,1,.895-.883h2.521a.889.889,0,0,1,.895.883v2.489A.889.889,0,0,1,13.416,20.755Z" transform="translate(-1.379 -1.638)"/>
    <path id="Path_86" data-name="Path 86" class="cls-3" d="M24.416,20.755H21.895A.889.889,0,0,1,21,19.872V17.383a.889.889,0,0,1,.895-.883h2.521a.889.889,0,0,1,.895.883v2.489A.889.889,0,0,1,24.416,20.755Z" transform="translate(-2.897 -1.638)"/>
    <path id="Path_87" data-name="Path 87" class="cls-4" d="M35.416,20.755H32.895A.889.889,0,0,1,32,19.872V17.383a.889.889,0,0,1,.895-.883h2.521a.889.889,0,0,1,.895.883v2.489A.889.889,0,0,1,35.416,20.755Z" transform="translate(-4.414 -1.638)"/>
    <path id="Path_88" data-name="Path 88" class="cls-5" d="M46.416,20.755H43.895A.889.889,0,0,1,43,19.872V17.383a.889.889,0,0,1,.895-.883h2.521a.889.889,0,0,1,.895.883v2.489A.889.889,0,0,1,46.416,20.755Z" transform="translate(-5.931 -1.638)"/>
    <path id="Path_89" data-name="Path 89" class="cls-6" d="M13.416,31.755H10.895A.889.889,0,0,1,10,30.872V28.383a.889.889,0,0,1,.895-.883h2.521a.889.889,0,0,1,.895.883v2.489A.889.889,0,0,1,13.416,31.755Z" transform="translate(-1.379 -3.277)"/>
    <path id="Path_90" data-name="Path 90" class="cls-7" d="M24.416,31.755H21.895A.889.889,0,0,1,21,30.872V28.383a.889.889,0,0,1,.895-.883h2.521a.889.889,0,0,1,.895.883v2.489A.889.889,0,0,1,24.416,31.755Z" transform="translate(-2.897 -3.277)"/>
    <path id="Path_91" data-name="Path 91" class="cls-8" d="M35.416,31.755H32.895A.889.889,0,0,1,32,30.872V28.383a.889.889,0,0,1,.895-.883h2.521a.889.889,0,0,1,.895.883v2.489A.889.889,0,0,1,35.416,31.755Z" transform="translate(-4.414 -3.277)"/>
    <path id="Path_92" data-name="Path 92" class="cls-9" d="M46.416,31.755H43.895A.889.889,0,0,1,43,30.872V28.383a.889.889,0,0,1,.895-.883h2.521a.889.889,0,0,1,.895.883v2.489A.889.889,0,0,1,46.416,31.755Z" transform="translate(-5.931 -3.277)"/>
    <path id="Path_93" data-name="Path 93" class="cls-10" d="M27.931,48.606V43.5H26.207v5.106H15V51.16H39.138V48.606Z" transform="translate(-2.069 -5.66)"/>
  </g>
</svg>
