<svg xmlns="http://www.w3.org/2000/svg" viewBox="0 0 60 40">
  <defs>
    <style>
      .cls-1 {
        fill: #1f893d;
      }

      .cls-2 {
        fill: #33b356;
      }

      .cls-3 {
        fill: #88c057;
      }

      .cls-4 {
        fill: #bfa380;
      }

      .cls-5 {
        fill: #3ec15d;
      }

      .cls-6 {
        fill: #23a24d;
      }
    </style>
  </defs>
  <g id="couch" transform="translate(0 -9.5)">
    <g id="Group_25" data-name="Group 25" transform="translate(2.069 17.591)">
      <path id="Path_77" data-name="Path 77" class="cls-1" d="M9.241,31.107V17.389L2,20.58v.051a2.609,2.609,0,0,1,.517-.051A2.575,2.575,0,0,1,5.1,23.144V33.627a8.293,8.293,0,0,1,4.138-2.52Z" transform="translate(-2 -17.389)"/>
    </g>
    <g id="Group_26" data-name="Group 26" transform="translate(50.69 17.591)">
      <path id="Path_78" data-name="Path 78" class="cls-1" d="M49,31.107V17.389l7.241,3.191v.051a2.609,2.609,0,0,0-.517-.051,2.575,2.575,0,0,0-2.586,2.564V33.627A8.289,8.289,0,0,0,49,31.107Z" transform="translate(-49 -17.389)"/>
    </g>
    <path id="Path_79" data-name="Path 79" class="cls-2" d="M11.069,31.038H26.328a3.348,3.348,0,0,1,3.362,3.333,3.348,3.348,0,0,1,3.362-3.333H48.31a8.287,8.287,0,0,1,2.069.271V11.484a1.992,1.992,0,0,0-2-1.984H11a1.992,1.992,0,0,0-2,1.984V31.309A8.287,8.287,0,0,1,11.069,31.038Z" transform="translate(0.31 0)"/>
    <ellipse id="Ellipse_2" data-name="Ellipse 2" class="cls-3" cx="1.034" cy="1.026" rx="1.034" ry="1.026" transform="translate(23.793 17.705)"/>
    <ellipse id="Ellipse_3" data-name="Ellipse 3" class="cls-3" cx="1.034" cy="1.026" rx="1.034" ry="1.026" transform="translate(25.862 20.782)"/>
    <ellipse id="Ellipse_4" data-name="Ellipse 4" class="cls-3" cx="1.034" cy="1.026" rx="1.034" ry="1.026" transform="translate(30 20.782)"/>
    <ellipse id="Ellipse_5" data-name="Ellipse 5" class="cls-3" cx="1.034" cy="1.026" rx="1.034" ry="1.026" transform="translate(27.931 17.705)"/>
    <ellipse id="Ellipse_6" data-name="Ellipse 6" class="cls-3" cx="1.034" cy="1.026" rx="1.034" ry="1.026" transform="translate(32.069 17.705)"/>
    <path id="Path_80" data-name="Path 80" class="cls-2" d="M54.828,23.064V34.112a4.871,4.871,0,0,1-4.891,4.849H10.063a4.871,4.871,0,0,1-4.891-4.849V23.064A2.575,2.575,0,0,0,2.586,20.5h0A2.575,2.575,0,0,0,0,23.064V34.112A10.02,10.02,0,0,0,10.063,44.09H49.937A10.02,10.02,0,0,0,60,34.112V23.064A2.575,2.575,0,0,0,57.414,20.5h0A2.575,2.575,0,0,0,54.828,23.064Z" transform="translate(0 0.282)"/>
    <path id="Path_81" data-name="Path 81" class="cls-4" d="M10.034,43.5,9,48.628h2.069L16.241,43.5Z" transform="translate(0.31 0.872)"/>
    <path id="Path_82" data-name="Path 82" class="cls-4" d="M48.207,43.5l1.034,5.128H47.172L42,43.5Z" transform="translate(1.448 0.872)"/>
    <path id="Path_83" data-name="Path 83" class="cls-5" d="M5,33.856a4.871,4.871,0,0,0,4.891,4.849H29.828V33.833A3.348,3.348,0,0,0,26.466,30.5H11.207A8.277,8.277,0,0,0,5,33.291Z" transform="translate(0.172 0.538)"/>
    <path id="Path_84" data-name="Path 84" class="cls-6" d="M53.828,33.856a4.871,4.871,0,0,1-4.891,4.849H29V33.833A3.348,3.348,0,0,1,32.362,30.5H47.621a8.277,8.277,0,0,1,6.207,2.791Z" transform="translate(1 0.538)"/>
  </g>
</svg>
